Antena,Fecha,Latitud,Longitud,Codigo,Temp_max_emas,Temp_min_emas,Temp_max_merra,Temp_min_merra,Differential_max,Differential_min,Temp_mean_merra,Temp_mean_emas,Humedad,Presion_barometrica,Precipitacion,Radiacion_solar,Etiqueta_clase
CHMR MERIDA,01/02/19,20.98361111,-89.65722222,YC11,24.6,20.8,32.70096,20.13321,8.10096,-0.66679,25.55975,NA,NA,NA,NA,NA,1
CHMR MERIDA,01/03/19,20.98361111,-89.65722222,YC11,35.7,21.9,34.61316,22.07138,-1.08684,0.17138,28.10693,28.4,55,1013.2,0,256.3,0
CHMR MERIDA,01/04/19,20.98361111,-89.65722222,YC11,36.5,23.4,35.54019,21.86011,-0.95981,-1.53989,27.76852,28.1,61,1013.1,0,289.7,1
CHMR MERIDA,08/03/19,20.98361111,-89.65722222,YC11,34.2,23.7,34.48407,21.05411,0.28407,-2.64589,27.02414,26.8,58,1015,0,285.1,1
CHMR MERIDA,02/03/19,20.98361111,-89.65722222,YC11,36.2,22.9,35.15231,22.22925,-1.04769,-0.67075,28.36545,29.1,57,1013.5,0,269.4,1
CHMR MERIDA,03/03/19,20.98361111,-89.65722222,YC11,36.8,22.8,35.71176,22.31412,-1.08824,-0.48588,28.5564,28.6,59,1011.8,0,284,0
CHMR MERIDA,03/04/19,20.98361111,-89.65722222,YC11,36.7,23.8,36.30951,23.50159,-0.39049,-0.29841,28.80255,29,62,1015.7,0,264.6,1
CHMR MERIDA,11/03/19,20.98361111,-89.65722222,YC11,36.6,23.4,35.64279,23.17264,-0.95721,-0.22736,29.31302,29.7,57,1014.4,0,288.8,0
CHMR MERIDA,13/04/19,20.98361111,-89.65722222,YC11,38.4,26.2,38.39987,25.51505,-0.00013,-0.68495,30.95914,31.6,56,1004.2,0,285.7,1
CHMR MERIDA,04/03/19,20.98361111,-89.65722222,YC11,37,31.9,36.14825,22.55017,-0.85175,-9.34983,28.70404,NA,NA,NA,NA,NA,1
CHMR MERIDA,04/04/19,20.98361111,-89.65722222,YC11,38.3,23,37.25458,23.44394,-1.04542,0.44394,30.08917,29.1,59,1015.3,0,297.9,1
CHMR MERIDA,05/03/19,20.98361111,-89.65722222,YC11,35,23.7,34.40118,23.20496,-0.59882,-0.49504,28.0816,27.9,69,1013.9,0,218.2,0
CHMR MERIDA,24/04/19,20.98361111,-89.65722222,YC11,37.2,24.5,37.53961,24.4202,0.33961,-0.0798,30.14529,28.5,65,1010.4,0,258.6,0
CHMR MERIDA,25/03/19,20.98361111,-89.65722222,YC11,35.5,21.8,34.00742,20.89203,-1.49258,-0.90797,26.17166,27.1,67,1014.5,0,303.3,0
CHMR MERIDA,06/03/19,20.98361111,-89.65722222,YC11,28.5,23.6,29.56281,22.69199,1.06281,-0.90801,25.6976,25.9,72,1019,1.2,165.6,1
CHMR MERIDA,26/02/19,20.98361111,-89.65722222,YC11,35.9,22.5,34.44318,21.25403,-1.45682,-1.24597,27.61783,NA,NA,NA,NA,NA,1
CHMR MERIDA,06/04/19,20.98361111,-89.65722222,YC11,37.1,24,37.03745,24.16095,-0.06255,0.16095,30.29153,30.1,58,1011.1,0,271.6,0
CHMR MERIDA,26/04/19,20.98361111,-89.65722222,YC11,37.1,25.4,36.35822,25.67444,-0.74178,0.27444,29.97107,30.3,57,1010.4,0,287.1,1
CHMR MERIDA,07/03/19,20.98361111,-89.65722222,YC11,35.2,21.4,33.10852,20.45071,-2.09148,-0.94929,25.65118,26,58,1018.8,0,263.2,1
CHMR MERIDA,27/02/19,20.98361111,-89.65722222,YC11,35.8,21.7,34.24445,21.26813,-1.55555,-0.43187,27.3222,NA,NA,NA,NA,NA,1
CHMR MERIDA,27/04/19,20.98361111,-89.65722222,YC11,35.7,25.5,34.88333,24.1601,-0.81667,-1.3399,28.45575,29.3,70,1011.3,0,236.1,0
CHMR MERIDA,08/04/19,20.98361111,-89.65722222,YC11,40.3,24.2,34.65997,25.01083,-5.64003,0.81083,29.8454,30.4,56,1010,0,277.7,1
CHMR MERIDA,09/03/19,20.98361111,-89.65722222,YC11,37.3,21.2,36.04285,21.58279,-1.25715,0.38279,28.04871,28.4,56,1011.1,0,283.7,1
CHMR MERIDA,31/01/19,20.98361111,-89.65722222,YC11,32.4,18.8,30.91168,17.96069,-1.48832,-0.83931,23.32187,23.6,75,1015.8,0,233,1
CHMR MERIDA,09/04/19,20.98361111,-89.65722222,YC11,28.6,22.3,29.90009,24.09329,1.30009,1.79329,26.09918,25.5,76,1011.2,46.2,70.5,0
CHMR MERIDA,10/03/19,20.98361111,-89.65722222,YC11,37.1,23.6,35.90582,23.04398,-1.19418,-0.55602,29.35641,29.8,58,1011.7,0,267,0
CHMR MERIDA,10/04/19,20.98361111,-89.65722222,YC11,34.8,18.6,33.80249,19.80701,-0.99751,1.20701,25.03943,25.6,65,1010.8,0,332.9,1
CHMR MERIDA,11/04/19,20.98361111,-89.65722222,YC11,39.7,20.6,37.1084,19.74207,-2.5916,-0.85793,26.70499,28.1,54,1006.5,0,329.7,0
CHMR MERIDA,12/03/19,20.98361111,-89.65722222,YC11,36.3,23.4,35.33707,23.66824,-0.96293,0.26824,29.17242,29.2,59,1014.7,0,274.2,1
CHMR MERIDA,12/04/19,20.98361111,-89.65722222,YC11,40.7,23,38.17157,22.04974,-2.52843,-0.95026,29.1142,30.8,52,1004.9,0,306.9,1
CHMR MERIDA,13/03/19,20.98361111,-89.65722222,YC11,37,23.2,36.06787,23.2579,-0.93213,0.0579,29.26407,29.5,58,1010.7,0,273.8,1
CHMR MERIDA,14/03/19,20.98361111,-89.65722222,YC11,37.7,23.8,36.85196,23.53421,-0.84804,-0.26579,29.62933,29.9,54,1009.3,0,293.7,0
CHMR MERIDA,16/03/19,20.98361111,-89.65722222,YC11,36.6,23.7,36.0065,23.56567,-0.5935,-0.13433,29.41245,29,59,1014.3,0,279.5,0
CHMR MERIDA,16/04/19,20.98361111,-89.65722222,YC11,38.2,24.7,36.56799,23.49139,-1.63201,-1.20861,28.53571,28.7,70,1014.6,0,278.5,1
CHMR MERIDA,17/03/19,20.98361111,-89.65722222,YC11,34.9,23.8,35.2193,23.01788,0.3193,-0.78212,28.47064,28.2,63,1014.1,0,232.3,1
CHMR MERIDA,17/04/19,20.98361111,-89.65722222,YC11,38.3,24,37.4397,23.61475,-0.8603,-0.38525,30.12598,30.2,62,1011,0,277.6,0
CHMR MERIDA,18/03/19,20.98361111,-89.65722222,YC11,30.4,23.8,33.40594,22.84961,3.00594,-0.95039,27.46347,26.9,67,1012.9,0,135.2,0
CHMR MERIDA,19/03/19,20.98361111,-89.65722222,YC11,28.2,22.3,29.91754,22.51785,1.71754,0.21785,25.21658,25.6,72,1013.1,4.2,119.8,0
CHMR MERIDA,21/03/19,20.98361111,-89.65722222,YC11,30.5,21.3,29.23703,20.09998,-1.26297,-1.20002,24.46011,25.5,61,1016.4,0,286.7,0
CHMR MERIDA,21/04/19,20.98361111,-89.65722222,YC11,35.7,19.2,34.25778,17.92221,-1.44222,-1.27779,24.8663,25.5,48,1015.9,0,332.5,1
CHMR MERIDA,22/03/19,20.98361111,-89.65722222,YC11,30.8,18.3,30.20428,18.46603,-0.59572,0.16603,23.84091,24.3,55,1017.1,0,300.4,1
CHMR MERIDA,22/04/19,20.98361111,-89.65722222,YC11,36.5,21.3,35.62744,21.78036,-0.87256,0.48036,27.77307,27.7,52,1014.1,0,327.7,0
CHMR MERIDA,23/03/19,20.98361111,-89.65722222,YC11,32.7,19.8,31.10672,17.89197,-1.59328,-1.90803,23.83725,24.9,53,1016.5,0,303.7,1
CHMR MERIDA,23/04/19,20.98361111,-89.65722222,YC11,38.3,22.5,36.62476,22.64435,-1.67524,0.14435,28.65448,28.6,54,1012.1,0,329.2,0
CHMR MERIDA,26/03/19,20.98361111,-89.65722222,YC11,33.6,23.3,31.90533,22.05084,-1.69467,-1.24916,26.48694,27.4,69,1015.3,0,294.8,1
CHMR MERIDA,28/02/19,20.98361111,-89.65722222,YC11,35.5,28.2,34.45978,21.42828,-1.04022,-6.77172,27.62772,NA,NA,NA,NA,NA,1
CHMR MERIDA,29/04/19,20.98361111,-89.65722222,YC11,38.3,24.6,37.54239,25.56229,-0.75761,0.96229,31.15506,30.1,62,1010.9,1.2,279.1,1
CHMR MERIDA,31/03/19,20.98361111,-89.65722222,YC11,30.2,22.2,34.31265,21.56824,4.11265,-0.63176,27.33792,NA,NA,NA,NA,NA,0
MERIDAob,01/02/19,20.94666667,-89.65194444,YC10,24.8,20.4,32.74838,20.10181,7.94838,-0.29819,25.57452,NA,NA,NA,NA,NA,1
MERIDAob,03/06/19,20.94666667,-89.65194444,YC10,34.3,25.6,33.25293,25.22906,-1.04707,-0.37094,28.2905,NA,NA,NA,NA,NA,0
MERIDAob,01/03/19,20.94666667,-89.65194444,YC10,35.1,21.1,34.65167,22.00412,-0.44833,0.90412,28.0878,28.1,58,1014.2,NA,229.1,0
MERIDAob,06/06/19,20.94666667,-89.65194444,YC10,39.3,25,38.37112,25.11624,-0.92888,0.11624,31.26965,NA,NA,NA,NA,NA,0
MERIDAob,01/04/19,20.94666667,-89.65194444,YC10,36.4,22,35.63361,21.83539,-0.76639,-0.16461,27.82822,27.8,63,1014.1,NA,281.7,1
MERIDAob,06/07/19,20.94666667,-89.65194444,YC10,34.4,23.5,34.08997,24.73944,-0.31003,1.23944,28.59433,27.7,82,1015.5,NA,270.6,0
MERIDAob,06/07/19,20.94666667,-89.65194444,YC10,34.4,23.5,34.08997,24.73944,-0.31003,1.23944,28.59433,27.7,82,1015.5,NA,270.6,0
MERIDAob,01/06/19,20.94666667,-89.65194444,YC10,32.7,25.8,33.45886,25.75653,0.75886,-0.04347,28.79364,NA,NA,NA,NA,NA,0
MERIDAob,08/03/19,20.94666667,-89.65194444,YC10,35.6,23.2,34.55624,21.00488,-1.04376,-2.19512,27.04193,26.8,59,1015.9,NA,286.7,1
MERIDAob,01/07/19,20.94666667,-89.65194444,YC10,33.6,23.1,31.45648,24.85953,-2.14352,1.75953,27.36438,28.1,79,1015.3,NA,281.5,1
MERIDAob,01/07/19,20.94666667,-89.65194444,YC10,33.6,23.1,31.45648,24.85953,-2.14352,1.75953,27.36438,28.1,79,1015.3,NA,281.5,1
MERIDAob,02/03/19,20.94666667,-89.65194444,YC10,36.5,22.3,35.19696,22.16412,-1.30304,-0.13588,28.35315,29,59,1014.6,NA,270.7,1
MERIDAob,03/03/19,20.94666667,-89.65194444,YC10,37.2,21.6,35.74594,22.25128,-1.45406,0.65128,28.5506,29,58,1012.4,NA,279.7,0
MERIDAob,03/04/19,20.94666667,-89.65194444,YC10,37.3,23.4,36.40045,23.48093,-0.89955,0.08093,28.85028,29.1,62,1016.6,NA,270.4,1
MERIDAob,11/03/19,20.94666667,-89.65194444,YC10,37.5,23.2,35.71014,23.13043,-1.78986,-0.06957,29.31714,29.8,58,1015.4,NA,291.4,0
MERIDAob,13/04/19,20.94666667,-89.65194444,YC10,38.9,26,38.4382,25.50864,-0.4618,-0.49136,30.98282,31.6,58,1005.3,NA,294,1
MERIDAob,03/07/19,20.94666667,-89.65194444,YC10,36.8,23.5,34.33951,23.45218,-2.46049,-0.04782,28.6019,28.4,79,1013.7,NA,278.2,0
MERIDAob,03/07/19,20.94666667,-89.65194444,YC10,36.8,23.5,34.33951,23.45218,-2.46049,-0.04782,28.6019,28.4,79,1013.7,NA,278.2,0
MERIDAob,16/07/19,20.94666667,-89.65194444,YC10,35.3,24.7,32.22412,25.18753,-3.07588,0.48753,28.85498,28.6,76,1014.5,NA,260.7,0
MERIDAob,16/07/19,20.94666667,-89.65194444,YC10,35.3,24.7,32.22412,25.18753,-3.07588,0.48753,28.85498,28.6,76,1014.5,NA,260.7,0
MERIDAob,04/03/19,20.94666667,-89.65194444,YC10,37.2,21.6,36.20285,22.49289,-0.99715,0.89289,28.71198,28.8,60,1011.7,NA,258.3,0
MERIDAob,18/05/19,20.94666667,-89.65194444,YC10,39,24.4,37.40851,24.93713,-1.59149,0.53713,30.42218,30.3,64,1008.8,NA,312.8,1
MERIDAob,04/04/19,20.94666667,-89.65194444,YC10,39.1,22.6,37.32721,23.41901,-1.77279,0.81901,30.11914,29.1,60,1016.4,NA,308.5,1
MERIDAob,04/06/19,20.94666667,-89.65194444,YC10,37.1,25,37.10156,24.55338,0.00156,-0.44662,30.07819,NA,NA,NA,NA,NA,0
MERIDAob,05/03/19,20.94666667,-89.65194444,YC10,35.1,22.3,34.52026,23.1514,-0.57974,0.8514,28.12408,27.5,71,1015,NA,229.3,0
MERIDAob,21/06/19,20.94666667,-89.65194444,YC10,39.1,25.8,36.60864,26.11987,-2.49136,0.31987,31.07034,NA,NA,NA,NA,NA,0
MERIDAob,23/06/19,20.94666667,-89.65194444,YC10,38.9,26.5,37.69827,26.40649,-1.20173,-0.09351,31.51575,NA,NA,NA,NA,NA,0
MERIDAob,05/06/19,20.94666667,-89.65194444,YC10,38.2,30.5,37.25134,25.05695,-0.94866,-5.44305,30.65488,NA,NA,NA,NA,NA,1
MERIDAob,24/04/19,20.94666667,-89.65194444,YC10,37.9,24.3,37.58911,24.40594,-0.31089,0.10594,30.18396,28.6,66,1011.4,NA,271.8,0
MERIDAob,05/07/19,20.94666667,-89.65194444,YC10,35.2,23.7,32.83173,25.27551,-2.36827,1.57551,28.36008,28.7,76,1014.6,NA,238.6,0
MERIDAob,05/07/19,20.94666667,-89.65194444,YC10,35.2,23.7,32.83173,25.27551,-2.36827,1.57551,28.36008,28.7,76,1014.6,NA,238.6,0
MERIDAob,25/03/19,20.94666667,-89.65194444,YC10,35.6,21.5,34.14435,20.82291,-1.45565,-0.67709,26.21063,26.9,68,1015.5,NA,297.5,0
MERIDAob,06/03/19,20.94666667,-89.65194444,YC10,28.9,23.7,29.71649,22.66974,0.81649,-1.03026,25.7482,26.1,72,1020,NA,159.6,1
MERIDAob,26/02/19,20.94666667,-89.65194444,YC10,35.9,21.7,34.50241,21.19202,-1.39759,-0.50798,27.60815,NA,NA,NA,NA,NA,1
MERIDAob,06/04/19,20.94666667,-89.65194444,YC10,36.9,23.5,37.09286,24.13791,0.19286,0.63791,30.31848,30.4,60,1012,NA,369.7,0
MERIDAob,26/04/19,20.94666667,-89.65194444,YC10,36.7,24,36.51901,25.70279,-0.18099,1.70279,30.07642,29.9,60,1011.4,NA,293.2,1
MERIDAob,26/05/19,20.94666667,-89.65194444,YC10,36.8,24.8,35.89731,24.20862,-0.90269,-0.59138,29.50989,30,61,1013.1,NA,331.4,1
MERIDAob,07/03/19,20.94666667,-89.65194444,YC10,34.5,21.1,33.20026,20.41199,-1.29974,-0.68801,25.67154,26,59,1019.7,NA,258.7,1
MERIDAob,27/02/19,20.94666667,-89.65194444,YC10,35.6,21,34.29993,21.20386,-1.30007,0.20386,27.31244,NA,NA,NA,NA,NA,1
MERIDAob,07/06/19,20.94666667,-89.65194444,YC10,39.9,25.2,38.58282,25.50439,-1.31718,0.30439,31.38272,NA,NA,NA,NA,NA,0
MERIDAob,27/04/19,20.94666667,-89.65194444,YC10,36.1,25.4,35.02203,24.13852,-1.07797,-1.26148,28.51385,28.9,71,1012.3,NA,199.2,0
MERIDAob,27/05/19,20.94666667,-89.65194444,YC10,37.7,25.3,36.15271,24.439,-1.54729,-0.861,29.40768,30.1,65,1012.1,NA,300.8,0
MERIDAob,07/07/19,20.94666667,-89.65194444,YC10,35.3,23.2,33.48792,23.98953,-1.81208,0.78953,28.44269,29.2,74,1015.3,NA,315.4,1
MERIDAob,07/07/19,20.94666667,-89.65194444,YC10,35.3,23.2,33.48792,23.98953,-1.81208,0.78953,28.44269,29.2,74,1015.3,NA,315.4,1
MERIDAob,30/05/19,20.94666667,-89.65194444,YC10,39.4,26.2,38.7037,26.98654,-0.6963,0.78654,32.17596,31.8,62,1007.6,NA,276.9,0
MERIDAob,08/04/19,20.94666667,-89.65194444,YC10,37.9,23.9,34.73737,24.99704,-3.16263,1.09704,29.87146,30.1,58,1011,NA,271.8,1
MERIDAob,09/03/19,20.94666667,-89.65194444,YC10,36.7,20.9,36.07523,21.52597,-0.62477,0.62597,28.05511,28.4,57,1012.1,NA,272.4,1
MERIDAob,31/01/19,20.94666667,-89.65194444,YC10,31.7,18.3,30.98169,17.89178,-0.71831,-0.40822,23.32687,23.5,75,1016.7,NA,217.4,1
MERIDAob,09/04/19,20.94666667,-89.65194444,YC10,28.8,21.8,30.03845,24.0639,1.23845,2.2639,26.12546,25.4,78,1012.2,NA,77.4,0
MERIDAob,09/07/19,20.94666667,-89.65194444,YC10,36.4,24.2,35.17923,24.51599,-1.22077,0.31599,28.84979,28.6,74,1014.5,NA,280,0
MERIDAob,09/07/19,20.94666667,-89.65194444,YC10,36.4,24.2,35.17923,24.51599,-1.22077,0.31599,28.84979,28.6,74,1014.5,NA,280,0
MERIDAob,10/03/19,20.94666667,-89.65194444,YC10,37.2,23.2,35.95215,23.01636,-1.24785,-0.18364,29.36023,29.8,59,1012.8,NA,261,0
MERIDAob,10/04/19,20.94666667,-89.65194444,YC10,34.2,16.3,33.91364,19.72766,-0.28636,3.42766,25.05093,24.2,69,1011.8,NA,332.7,1
MERIDAob,10/06/19,20.94666667,-89.65194444,YC10,38,26.6,36.55579,27.03879,-1.44421,0.43879,31.13275,NA,NA,NA,NA,NA,1
MERIDAob,10/07/19,20.94666667,-89.65194444,YC10,35.8,23.7,35.63846,23.83472,-0.16154,0.13472,28.48325,28.6,79,1013.8,NA,276.6,0
MERIDAob,10/07/19,20.94666667,-89.65194444,YC10,35.8,23.7,35.63846,23.83472,-0.16154,0.13472,28.48325,28.6,79,1013.8,NA,276.6,0
MERIDAob,11/04/19,20.94666667,-89.65194444,YC10,39.3,19.9,37.16058,19.67783,-2.13942,-0.22217,26.70834,28,55,1007.5,NA,330.7,0
MERIDAob,11/06/19,20.94666667,-89.65194444,YC10,36,25.3,36.69562,25.47305,0.69562,0.17305,29.90472,NA,NA,NA,NA,NA,1
MERIDAob,12/03/19,20.94666667,-89.65194444,YC10,36.7,23.2,35.39975,23.63556,-1.30025,0.43556,29.19348,29.4,59,1015.6,NA,270.6,1
MERIDAob,12/04/19,20.94666667,-89.65194444,YC10,40.8,22.6,38.23065,22.02332,-2.56935,-0.57668,29.12592,30.7,53,1005.9,NA,315.9,1
MERIDAob,12/06/19,20.94666667,-89.65194444,YC10,36.2,22.1,35.84903,24.06726,-0.35097,1.96726,28.87418,NA,NA,NA,NA,NA,0
MERIDAob,13/03/19,20.94666667,-89.65194444,YC10,37.5,22.8,36.09729,23.23737,-1.40271,0.43737,29.27042,29.4,58,1011.7,NA,267,1
MERIDAob,13/06/19,20.94666667,-89.65194444,YC10,34.2,23.5,31.64618,25.15726,-2.55382,1.65726,27.73788,NA,NA,NA,NA,NA,0
MERIDAob,14/03/19,20.94666667,-89.65194444,YC10,38,23.4,36.89642,23.51672,-1.10358,0.11672,29.63428,29.9,56,1010.3,NA,284.4,0
MERIDAob,14/05/19,20.94666667,-89.65194444,YC10,40,34.4,39.08569,25.32855,-0.91431,-9.07145,31.30481,NA,NA,NA,NA,NA,0
MERIDAob,14/07/19,20.94666667,-89.65194444,YC10,37.7,24.9,34.59558,24.76389,-3.10442,-0.13611,29.4422,30.5,66,1012.7,NA,286.9,0
MERIDAob,14/07/19,20.94666667,-89.65194444,YC10,37.7,24.9,34.59558,24.76389,-3.10442,-0.13611,29.4422,30.5,66,1012.7,NA,286.9,0
MERIDAob,15/05/19,20.94666667,-89.65194444,YC10,39.1,26.5,37.33591,26.21188,-1.76409,-0.28812,30.89191,31.2,65,1009.9,NA,267.6,0
MERIDAob,15/06/19,20.94666667,-89.65194444,YC10,33.1,25.2,31.05664,23.88034,-2.04336,-1.31966,27.01147,NA,NA,NA,NA,NA,1
MERIDAob,15/07/19,20.94666667,-89.65194444,YC10,36.1,25.3,34.461,25.10046,-1.639,-0.19954,29.52002,30.3,70,1013.2,NA,291.9,0
MERIDAob,15/07/19,20.94666667,-89.65194444,YC10,36.1,25.3,34.461,25.10046,-1.639,-0.19954,29.52002,30.3,70,1013.2,NA,291.9,0
MERIDAob,16/03/19,20.94666667,-89.65194444,YC10,36.6,23.1,36.10406,23.51343,-0.49594,0.41343,29.4577,28.7,61,1015.3,NA,270.3,0
MERIDAob,16/04/19,20.94666667,-89.65194444,YC10,37.1,24.7,36.67773,23.48138,-0.42227,-1.21862,28.58575,28.6,71,1015.6,NA,138.2,1
MERIDAob,16/05/19,20.94666667,-89.65194444,YC10,36.9,26.6,33.87964,26.30423,-3.02036,-0.29577,29.60608,30.6,70,1010.9,NA,230.3,1
MERIDAob,16/06/19,20.94666667,-89.65194444,YC10,33.7,25.3,31.70605,24.3576,-1.99395,-0.9424,27.18661,NA,NA,NA,NA,NA,0
MERIDAob,17/03/19,20.94666667,-89.65194444,YC10,36,23.3,35.33679,22.98193,-0.66321,-0.31807,28.53247,28.3,63,1015.1,NA,252.8,1
MERIDAob,17/04/19,20.94666667,-89.65194444,YC10,38.2,23.7,37.49506,23.59601,-0.70494,-0.10399,30.15866,30.1,62,1012,NA,259.1,0
MERIDAob,17/05/19,20.94666667,-89.65194444,YC10,37.9,24.6,36.26843,25.53381,-1.63157,0.93381,29.95407,30,65,1010.3,NA,285.4,1
MERIDAob,17/07/19,20.94666667,-89.65194444,YC10,35.1,24,33.36108,24.27155,-1.73892,0.27155,28.27228,27.9,83,1015.6,NA,215.3,1
MERIDAob,17/07/19,20.94666667,-89.65194444,YC10,35.1,24,33.36108,24.27155,-1.73892,0.27155,28.27228,27.9,83,1015.6,NA,215.3,1
MERIDAob,18/03/19,20.94666667,-89.65194444,YC10,30.3,23.2,33.49377,22.81015,3.19377,-0.38985,27.50928,26.9,68,1013.9,NA,138,0
MERIDAob,18/06/19,20.94666667,-89.65194444,YC10,38.2,25.3,35.79584,25.01736,-2.40416,-0.28264,29.68494,NA,NA,NA,NA,NA,0
MERIDAob,19/03/19,20.94666667,-89.65194444,YC10,28.7,22.6,30.01929,22.487,1.31929,-0.113,25.24097,25.3,73,1014.1,NA,98.2,0
MERIDAob,19/05/19,20.94666667,-89.65194444,YC10,39.1,25.3,37.5567,26.22385,-1.5433,0.92385,31.21912,31.3,61,1008.5,NA,290.1,1
MERIDAob,19/07/19,20.94666667,-89.65194444,YC10,36.2,23.7,35.24646,23.96091,-0.95354,0.26091,29.3436,29.3,69,1014.3,NA,325.7,0
MERIDAob,19/07/19,20.94666667,-89.65194444,YC10,36.2,23.7,35.24646,23.96091,-0.95354,0.26091,29.3436,29.3,69,1014.3,NA,325.7,0
MERIDAob,20/05/19,20.94666667,-89.65194444,YC10,39.4,25.1,37.5892,25.03397,-1.8108,-0.06603,30.97235,31.6,57,1010.1,NA,315.3,0
MERIDAob,20/07/19,20.94666667,-89.65194444,YC10,36,24.2,34.29706,24.48953,-1.70294,0.28953,28.6062,29.5,71,1013.5,NA,295.8,0
MERIDAob,20/07/19,20.94666667,-89.65194444,YC10,36,24.2,34.29706,24.48953,-1.70294,0.28953,28.6062,29.5,71,1013.5,NA,295.8,0
MERIDAob,21/03/19,20.94666667,-89.65194444,YC10,30.2,18.2,29.33936,20.01114,-0.86064,1.81114,24.46774,24.9,65,1017.4,NA,296.3,1
MERIDAob,21/04/19,20.94666667,-89.65194444,YC10,35.2,14.2,34.36737,17.86755,-0.83263,3.66755,24.89621,24.4,54,1016.9,NA,334.6,1
MERIDAob,21/07/19,20.94666667,-89.65194444,YC10,34.7,23.2,32.66833,23.79904,-2.03167,0.59904,27.80606,26.3,87,1014.2,NA,223.1,1
MERIDAob,21/07/19,20.94666667,-89.65194444,YC10,34.7,23.2,32.66833,23.79904,-2.03167,0.59904,27.80606,26.3,87,1014.2,NA,223.1,1
MERIDAob,22/03/19,20.94666667,-89.65194444,YC10,30.9,14.7,30.32648,18.34946,-0.57352,3.64946,23.84451,23.6,60,1018.1,NA,299.8,1
MERIDAob,22/04/19,20.94666667,-89.65194444,YC10,36.5,21.3,35.73828,21.75653,-0.76172,0.45653,27.8172,27.6,53,1015,NA,328.1,0
MERIDAob,22/06/19,20.94666667,-89.65194444,YC10,38.6,26.7,36.64255,26.34293,-1.95745,-0.35707,31.2395,NA,NA,NA,NA,NA,0
MERIDAob,23/03/19,20.94666667,-89.65194444,YC10,32.3,19.4,31.22064,17.82889,-1.07936,-1.57111,23.85944,24.8,54,1017.5,NA,281.8,1
MERIDAob,23/04/19,20.94666667,-89.65194444,YC10,37.6,22.3,36.73004,22.63049,-0.86996,0.33049,28.70749,28.5,55,1013,NA,332.2,0
MERIDAob,23/05/19,20.94666667,-89.65194444,YC10,37.9,25.6,37.46875,25.88531,-0.43125,0.28531,31.53555,31.3,61,1011.5,NA,265.8,0
MERIDAob,24/05/19,20.94666667,-89.65194444,YC10,37.7,25.5,37.14294,26.21576,-0.55706,0.71576,31.21942,30.9,59,1012.2,NA,319.7,0
MERIDAob,25/05/19,20.94666667,-89.65194444,YC10,35.9,25.1,35.89075,24.72064,-0.00925,-0.37936,29.9375,29.9,62,1012.8,NA,299.6,1
MERIDAob,26/03/19,20.94666667,-89.65194444,YC10,33.5,22.9,32.05365,22.01349,-1.44635,-0.88651,26.54361,27.3,69,1016.3,NA,291,1
MERIDAob,27/07/19,20.94666667,-89.65194444,YC10,34.7,24.4,31.65289,24.06046,-3.04711,-0.33954,27.82996,28.1,81,1017.6,NA,270.1,0
MERIDAob,27/07/19,20.94666667,-89.65194444,YC10,34.7,24.4,31.65289,24.06046,-3.04711,-0.33954,27.82996,28.1,81,1017.6,NA,270.1,0
MERIDAob,28/02/19,20.94666667,-89.65194444,YC10,35.8,28.3,34.48871,21.36169,-1.31129,-6.93831,27.6142,NA,NA,NA,NA,NA,1
MERIDAob,28/05/19,20.94666667,-89.65194444,YC10,37.6,25,37.16904,25.49207,-0.43096,0.49207,30.62671,30.4,64,1009.8,NA,316.7,1
MERIDAob,28/06/19,20.94666667,-89.65194444,YC10,34.2,25.7,33.21231,24.88528,-0.98769,-0.81472,28.33594,NA,NA,NA,NA,NA,0
MERIDAob,28/07/19,20.94666667,-89.65194444,YC10,35.3,32.1,32.26483,24.80511,-3.03517,-7.29489,28.14117,29.2,79,1017.2,NA,286.6,1
MERIDAob,28/07/19,20.94666667,-89.65194444,YC10,35.3,32.1,32.26483,24.80511,-3.03517,-7.29489,28.14117,29.2,79,1017.2,NA,286.6,1
MERIDAob,29/04/19,20.94666667,-89.65194444,YC10,38.4,24.4,37.62082,25.5336,-0.77918,1.1336,31.19281,29.9,63,1011.9,NA,285.9,1
MERIDAob,29/07/19,20.94666667,-89.65194444,YC10,34.7,24.2,32.15549,24.54883,-2.54451,0.34883,28.04895,28.5,73,1015.6,NA,272.4,0
MERIDAob,29/07/19,20.94666667,-89.65194444,YC10,34.7,24.2,32.15549,24.54883,-2.54451,0.34883,28.04895,28.5,73,1015.6,NA,272.4,0
MERIDAob,30/07/19,20.94666667,-89.65194444,YC10,34.6,25.1,32.36343,24.54233,-2.23657,-0.55767,27.99982,29.6,74,1014.3,NA,272.5,0
MERIDAob,30/07/19,20.94666667,-89.65194444,YC10,34.6,25.1,32.36343,24.54233,-2.23657,-0.55767,27.99982,29.6,74,1014.3,NA,272.5,0
MERIDAob,31/03/19,20.94666667,-89.65194444,YC10,29.4,21.4,34.45148,21.54669,5.05148,0.14669,27.3963,NA,NA,NA,NA,NA,0
MERIDAob,31/05/19,20.94666667,-89.65194444,YC10,36.4,26.5,33.71869,27.56311,-2.68131,1.06311,30.38199,30,72,1008.9,NA,200.7,0
MERIDAob,31/07/19,20.94666667,-89.65194444,YC10,35.2,26.2,33.06476,24.6698,-2.13524,-1.5302,28.31686,29.4,77,1013.8,NA,226.8,0
MERIDAob,31/07/19,20.94666667,-89.65194444,YC10,35.2,26.2,33.06476,24.6698,-2.13524,-1.5302,28.31686,29.4,77,1013.8,NA,226.8,0
OXKUTZCAB,01/02/19,20.29111111,-89.39472222,YC06,25.3,19.9,33.05396,19.22189,7.75396,-0.67811,25.46609,24.1,NA,NA,0,NA,1
OXKUTZCAB,01/03/19,20.29111111,-89.39472222,YC06,34,17.9,34.82245,20.13614,0.82245,2.23614,26.97916,26.2,69,944,0,227.4,0
OXKUTZCAB,01/04/19,20.29111111,-89.39472222,YC06,32,27.7,37.03677,21.93689,5.03677,-5.76311,29.33566,NA,NA,NA,NA,NA,1
OXKUTZCAB,08/03/19,20.29111111,-89.39472222,YC06,34.1,15,34.97235,20.2009,0.87235,5.2009,27.05814,25.2,68,945.6,0,265.8,0
OXKUTZCAB,08/05/19,20.29111111,-89.39472222,YC06,37.3,33,37.80054,23.27213,0.50054,-9.72787,29.99945,NA,NA,NA,0,NA,1
OXKUTZCAB,02/03/19,20.29111111,-89.39472222,YC06,34.4,18.2,35.08527,20.68225,0.68527,2.48225,27.4646,26.5,70,944.4,0,232.9,1
OXKUTZCAB,11/02/19,20.29111111,-89.39472222,YC06,31.6,17.4,32.27762,19.71774,0.67762,2.31774,25.7793,24.2,78,944.1,0,172,0
OXKUTZCAB,03/03/19,20.29111111,-89.39472222,YC06,35.3,17.9,35.60358,20.90277,0.30358,3.00277,27.78485,26.8,68,942.2,0,243.6,1
OXKUTZCAB,03/04/19,20.29111111,-89.39472222,YC06,35.5,31.5,37.10629,22.84976,1.60629,-8.65024,29.53693,NA,NA,NA,0,NA,0
OXKUTZCAB,11/03/19,20.29111111,-89.39472222,YC06,34.7,20.2,35.89832,22.52127,1.19832,2.32127,28.83255,27.5,70,945,0,236.4,0
OXKUTZCAB,13/04/19,20.29111111,-89.39472222,YC06,36,26.5,38.12839,25.26025,2.12839,-1.23975,30.78036,30.8,62,934.9,0,224.8,1
OXKUTZCAB,04/03/19,20.29111111,-89.39472222,YC06,35.4,19,36.33472,20.75247,0.93472,1.75247,28.13669,27.3,67,941.4,0,245.4,0
OXKUTZCAB,19/02/19,20.29111111,-89.39472222,YC06,34.5,23.2,35.01718,23.47433,0.51718,0.27433,28.49628,28.3,74,942.3,0,178.6,0
OXKUTZCAB,21/02/19,20.29111111,-89.39472222,YC06,33.2,17.5,33.14822,21.97272,-0.05178,4.47272,27.3718,25.8,74,940.8,0,188.5,1
OXKUTZCAB,05/03/19,20.29111111,-89.39472222,YC06,35.2,19.4,36.20737,22.073,1.00737,2.673,28.58542,27.1,69,944.2,0,212.4,0
OXKUTZCAB,05/04/19,20.29111111,-89.39472222,YC06,33.3,28.2,37.53476,23.23074,4.23476,-4.96926,30.25595,NA,NA,NA,NA,NA,0
OXKUTZCAB,24/02/19,20.29111111,-89.39472222,YC06,35.2,18.8,35.30109,20.88174,0.10109,2.08174,27.61237,27,72,943.8,0,221.5,0
OXKUTZCAB,24/04/19,20.29111111,-89.39472222,YC06,36.7,23.1,37.43265,23.78677,0.73265,0.68677,30.16232,29.7,63,940,0,257.8,0
OXKUTZCAB,25/03/19,20.29111111,-89.39472222,YC06,35.3,23.4,36.44958,19.73889,1.14958,-3.66111,27.31964,NA,NA,NA,0,NA,0
OXKUTZCAB,06/03/19,20.29111111,-89.39472222,YC06,30.5,22.5,33.09406,22.56451,2.59406,0.06451,27.12964,26,79,949.1,2.6,138.2,1
OXKUTZCAB,26/02/19,20.29111111,-89.39472222,YC06,33.5,17.5,34.60287,19.8941,1.10287,2.3941,26.73151,25.3,71,947.2,0,202.7,0
OXKUTZCAB,26/04/19,20.29111111,-89.39472222,YC06,37.1,21.7,38.67575,25.41974,1.57575,3.71974,31.69492,29.8,64,940.4,0,187.6,1
OXKUTZCAB,07/02/19,20.29111111,-89.39472222,YC06,32.5,17.2,33.33725,20.42734,0.83725,3.22734,26.04572,24.3,75,943.8,0,179,0
OXKUTZCAB,07/03/19,20.29111111,-89.39472222,YC06,32.5,20.3,34.11456,20.03372,1.61456,-0.26628,26.01022,25.5,68,949.2,0,211.1,1
OXKUTZCAB,27/02/19,20.29111111,-89.39472222,YC06,33.4,16.1,34.42062,19.8139,1.02062,3.7139,26.52924,24.3,73,946.4,0,235.8,1
OXKUTZCAB,27/04/19,20.29111111,-89.39472222,YC06,35.1,23,35.6394,24.44879,0.5394,1.44879,29.67795,28.9,68,941.4,0,195.1,0
OXKUTZCAB,08/04/19,20.29111111,-89.39472222,YC06,36.6,28.7,36.51486,24.77417,-0.08514,-3.92583,30.14148,NA,NA,NA,0,NA,1
OXKUTZCAB,09/03/19,20.29111111,-89.39472222,YC06,35.1,15.7,35.95401,20.3222,0.85401,4.6222,27.60635,25.8,69,942,0,219.2,0
OXKUTZCAB,31/01/19,20.29111111,-89.39472222,YC06,30.8,12.5,31.67685,16.46918,0.87685,3.96918,23.41428,21.1,77,946.7,0,192.6,1
OXKUTZCAB,09/04/19,20.29111111,-89.39472222,YC06,25.7,22.2,32.65378,23.16507,6.95378,0.96507,26.66254,NA,NA,NA,1.2,NA,0
OXKUTZCAB,10/03/19,20.29111111,-89.39472222,YC06,35.5,19.7,36.03378,22.83368,0.53378,3.13368,28.84677,27.6,70,942.6,0,245.3,1
OXKUTZCAB,10/04/19,20.29111111,-89.39472222,YC06,34.5,25.1,35.29544,17.64572,0.79544,-7.45428,25.28244,NA,NA,NA,0,NA,1
OXKUTZCAB,10/05/19,20.29111111,-89.39472222,YC06,33.4,26.2,37.02383,25.45911,3.62383,-0.74089,30.80527,NA,NA,NA,NA,NA,0
OXKUTZCAB,11/04/19,20.29111111,-89.39472222,YC06,37.7,30.2,37.25253,18.60535,-0.44747,-11.59465,26.45709,NA,NA,NA,0,NA,1
OXKUTZCAB,12/02/19,20.29111111,-89.39472222,YC06,34.9,19.7,33.09753,20.86816,-1.80247,1.16816,26.47015,25.3,79,941.8,1.6,191.8,0
OXKUTZCAB,12/03/19,20.29111111,-89.39472222,YC06,34.5,19.5,35.62491,23.06961,1.12491,3.56961,28.97464,27.2,68,945.3,0,232.9,1
OXKUTZCAB,12/04/19,20.29111111,-89.39472222,YC06,37.8,26.6,38.19247,21.6145,0.39247,-4.9855,28.86478,NA,NA,NA,0,NA,1
OXKUTZCAB,13/02/19,20.29111111,-89.39472222,YC06,26.4,21.2,29.04474,21.159,2.64474,-0.041,24.42831,22.8,92,945.7,17.8,120.7,0
OXKUTZCAB,13/03/19,20.29111111,-89.39472222,YC06,35.3,18.7,36.1618,22.89801,0.8618,4.19801,28.93646,27.1,67,941.6,0,238.7,0
OXKUTZCAB,14/03/19,20.29111111,-89.39472222,YC06,35.3,22.6,37.11252,23.55527,1.81252,0.95527,29.46274,28.3,66,940.1,0,246.4,0
OXKUTZCAB,16/03/19,20.29111111,-89.39472222,YC06,35.3,23.4,36.95792,22.12411,1.65792,-1.27589,29.59125,NA,NA,NA,0,NA,0
OXKUTZCAB,16/04/19,20.29111111,-89.39472222,YC06,36.6,24.4,37.28763,23.71429,0.68763,-0.68571,29.40204,28.7,72,944.5,0,162.7,1
OXKUTZCAB,16/05/19,20.29111111,-89.39472222,YC06,35,31.3,34.08627,25.97113,-0.91373,-5.32887,29.72849,NA,NA,NA,NA,NA,0
OXKUTZCAB,17/03/19,20.29111111,-89.39472222,YC06,34.3,24.4,36.75433,22.15823,2.45433,-2.24177,29.39941,NA,NA,NA,0,NA,1
OXKUTZCAB,17/04/19,20.29111111,-89.39472222,YC06,29.6,21.6,36.8187,22.70181,7.2187,1.10181,29.54565,NA,NA,NA,NA,NA,1
OXKUTZCAB,17/05/19,20.29111111,-89.39472222,YC06,33.5,24.6,35.29697,24.39566,1.79697,-0.20434,28.90915,NA,NA,NA,3.2,NA,0
OXKUTZCAB,18/02/19,20.29111111,-89.39472222,YC06,36.2,23.1,36.80188,22.12292,0.60188,-0.97708,28.31799,28.3,73,939.6,0,221.7,1
OXKUTZCAB,18/03/19,20.29111111,-89.39472222,YC06,29.9,25.7,34.47708,21.59485,4.57708,-4.10515,27.98846,NA,NA,NA,NA,NA,0
OXKUTZCAB,19/03/19,20.29111111,-89.39472222,YC06,29.6,24.9,32.05231,21.96371,2.45231,-2.93629,25.89929,NA,NA,NA,0,NA,1
OXKUTZCAB,20/02/19,20.29111111,-89.39472222,YC06,34.3,19.7,34.64462,22.20831,0.34462,2.50831,27.81274,27.3,70,940.1,0,220.5,1
OXKUTZCAB,20/05/19,20.29111111,-89.39472222,YC06,34.9,29,37.595,24.2771,2.695,-4.7229,30.46481,NA,NA,NA,0,NA,1
OXKUTZCAB,21/03/19,20.29111111,-89.39472222,YC06,32.7,21.9,31.75745,18.62299,-0.94255,-3.27701,25.15155,NA,NA,NA,0,NA,1
OXKUTZCAB,21/04/19,20.29111111,-89.39472222,YC06,32.3,22.1,35.62665,17.41803,3.32665,-4.68197,25.70645,NA,NA,NA,0,NA,1
OXKUTZCAB,22/02/19,20.29111111,-89.39472222,YC06,34.1,20.7,35.31757,22.43005,1.21757,1.73005,27.72147,27,76,941.7,0,182,0
OXKUTZCAB,22/03/19,20.29111111,-89.39472222,YC06,31.8,15.1,32.99634,16.72992,1.19634,1.62992,24.56165,22.9,67,947.6,0,272.4,1
OXKUTZCAB,22/04/19,20.29111111,-89.39472222,YC06,35.8,19.7,36.82843,20.95062,1.02843,1.25062,28.12888,NA,NA,NA,0,NA,0
OXKUTZCAB,23/02/19,20.29111111,-89.39472222,YC06,34.2,18.2,34.60068,21.78082,0.40068,3.58082,27.87305,26.4,73,942.9,0,193.2,1
OXKUTZCAB,23/03/19,20.29111111,-89.39472222,YC06,32.3,20.9,33.77612,17.39966,1.47612,-3.50034,25.04642,NA,NA,NA,0,NA,1
OXKUTZCAB,23/04/19,20.29111111,-89.39472222,YC06,36.9,17.6,37.5347,21.99631,0.6347,4.39631,29.17096,28.1,59,942.3,0,268.6,0
OXKUTZCAB,25/02/19,20.29111111,-89.39472222,YC06,33.8,21.4,34.40701,21.67694,0.60701,0.27694,26.89047,26.2,80,946.6,19,207.3,1
OXKUTZCAB,25/04/19,20.29111111,-89.39472222,YC06,37.6,23.4,39.25143,23.84741,1.65143,0.44741,30.62347,30,63,938.3,0,235,1
OXKUTZCAB,26/03/19,20.29111111,-89.39472222,YC06,34.6,25.5,35.63599,21.52261,1.03599,-3.97739,28.2244,NA,NA,NA,0,NA,1
OXKUTZCAB,28/02/19,20.29111111,-89.39472222,YC06,33.6,16.1,34.0878,19.71121,0.4878,3.61121,26.54382,25.2,73,944.3,0,224.8,0
OXKUTZCAB,29/04/19,20.29111111,-89.39472222,YC06,37.5,24.5,37.89383,24.97833,0.39383,0.47833,31.23187,NA,NA,NA,0.2,NA,1
DZILAM,01/02/19,21.39055556,-88.90416667,YC05,23.2,19.4,29.9996,20.85907,6.7996,1.45907,24.86124,22.9,NA,NA,0,NA,0
DZILAM,03/06/19,21.39055556,-88.90416667,YC05,31.9,31.9,33.00369,26.52011,1.10369,-5.37989,29.01373,NA,NA,NA,NA,NA,1
DZILAM,01/03/19,21.39055556,-88.90416667,YC05,32,19.9,31.25879,22.44394,-0.74121,2.54394,26.7572,25.4,77,1015.4,0,239.4,1
DZILAM,06/06/19,21.39055556,-88.90416667,YC05,NA,NA,36.22516,25.82983,NA,NA,30.34836,NA,NA,NA,NA,NA,0
DZILAM,01/04/19,21.39055556,-88.90416667,YC05,34.6,21.1,31.76407,22.49356,-2.83593,1.39356,26.42456,26.5,81,1014.8,0,293.7,0
DZILAM,01/06/19,21.39055556,-88.90416667,YC05,NA,NA,31.95621,26.15805,NA,NA,28.57556,NA,NA,NA,NA,NA,0
DZILAM,08/03/19,21.39055556,-88.90416667,YC05,35.3,18.8,30.27908,21.65454,-5.02092,2.85454,25.35696,24.8,76,1017.4,0,313.3,0
DZILAM,08/05/19,21.39055556,-88.90416667,YC05,NA,NA,34.32114,24.96677,NA,NA,29.42908,NA,NA,NA,0,NA,0
DZILAM,02/03/19,21.39055556,-88.90416667,YC05,34.1,21,31.55157,23.13766,-2.54843,2.13766,27.27219,26.9,70,1015.8,0,264.8,0
DZILAM,11/02/19,21.39055556,-88.90416667,YC05,30.7,21.6,29.44135,22.22903,-1.25865,0.62903,25.69437,25.1,81,1015.3,0,192.5,1
DZILAM,03/03/19,21.39055556,-88.90416667,YC05,34.7,20.4,32.45767,22.7803,-2.24233,2.3803,27.25067,27.2,67,1013.6,0,286.6,1
DZILAM,03/04/19,21.39055556,-88.90416667,YC05,35.2,21.7,31.89151,23.98862,-3.30849,2.28862,27.40442,27,81,1017.7,0,272.2,1
DZILAM,11/03/19,21.39055556,-88.90416667,YC05,35.1,22.1,31.81082,23.48669,-3.28918,1.38669,27.56744,27.2,77,1016.9,0,294.5,1
DZILAM,13/04/19,21.39055556,-88.90416667,YC05,NA,NA,34.45969,25.70172,NA,NA,29.52765,NA,NA,0,303.2,NA,0
DZILAM,03/07/19,21.39055556,-88.90416667,YC05,NA,NA,32.04047,24.72256,NA,NA,28.18625,NA,NA,NA,NA,NA,0
DZILAM,03/07/19,21.39055556,-88.90416667,YC05,NA,NA,32.04047,24.72256,NA,NA,28.18625,NA,NA,NA,NA,NA,0
DZILAM,04/03/19,21.39055556,-88.90416667,YC05,31.9,20.8,32.68863,22.82605,0.78863,2.02605,27.32465,25.8,80,1012.9,0,254.3,0
DZILAM,18/05/19,21.39055556,-88.90416667,YC05,NA,NA,34.11481,25.98932,NA,NA,29.47122,NA,NA,917,0,962,0
DZILAM,04/04/19,21.39055556,-88.90416667,YC05,38.2,21.2,32.83713,23.29599,-5.36287,2.09599,27.9119,28.6,70,1016.9,0,293.6,0
DZILAM,19/02/19,21.39055556,-88.90416667,YC05,34.2,21.7,31.63379,24.24554,-2.56621,2.54554,27.56339,27.6,75,1014,0,222.8,1
DZILAM,04/06/19,21.39055556,-88.90416667,YC05,NA,NA,35.13974,26.00278,NA,NA,29.92209,NA,NA,NA,NA,NA,0
DZILAM,21/02/19,21.39055556,-88.90416667,YC05,32.6,21.2,30.06732,23.26779,-2.53268,2.06779,26.93958,26.6,74,1012.4,0,200.4,0
DZILAM,05/03/19,21.39055556,-88.90416667,YC05,39.2,19.9,30.78683,23.26917,-8.41317,3.36917,26.61752,27.3,78,1015.9,0,274,0
DZILAM,05/04/19,21.39055556,-88.90416667,YC05,39.4,21.2,33.4234,23.49554,-5.9766,2.29554,28.16287,28.4,71,1013.9,0,316.9,1
DZILAM,24/02/19,21.39055556,-88.90416667,YC05,30,21.2,30.9469,22.9541,0.9469,1.7541,26.91229,25.4,84,1015.8,0,223.8,1
DZILAM,25/03/19,21.39055556,-88.90416667,YC05,34.9,20.5,30.02109,22.55206,-4.87891,2.05206,25.57108,26,84,1016.3,0,319.5,1
DZILAM,06/03/19,21.39055556,-88.90416667,YC05,26,23.9,26.72873,23.35403,0.72873,-0.54597,24.88199,25,84,1021.1,0,107,0
DZILAM,26/02/19,21.39055556,-88.90416667,YC05,33.4,20,31.17484,22.59433,-2.22516,2.59433,26.75757,25.1,81,1018.7,0,275.6,0
DZILAM,06/04/19,21.39055556,-88.90416667,YC05,37,22,32.79102,24.00122,-4.20898,2.00122,28.375,29.4,66,1013.2,0,271.6,0
DZILAM,26/04/19,21.39055556,-88.90416667,YC05,NA,NA,32.97141,25.87524,NA,NA,28.71982,NA,NA,0,282.7,NA,0
DZILAM,07/02/19,21.39055556,-88.90416667,YC05,32,20.5,29.85541,22.16489,-2.14459,1.66489,25.59314,25.3,76,1015.2,0,247.5,1
DZILAM,26/05/19,21.39055556,-88.90416667,YC05,NA,NA,31.89948,24.66473,NA,NA,28.0799,NA,NA,919.8,0,341.4,0
DZILAM,07/03/19,21.39055556,-88.90416667,YC05,32.3,18.7,29.01315,21.52618,-3.28685,2.82618,24.58575,24.3,74,1021,0,288.6,0
DZILAM,27/02/19,21.39055556,-88.90416667,YC05,31.1,20.5,30.97354,22.32446,-0.12646,1.82446,26.38986,24.9,79,1017.7,0,275.7,0
DZILAM,27/04/19,21.39055556,-88.90416667,YC05,NA,NA,32.03284,24.85571,NA,NA,27.5249,NA,NA,0,264,NA,0
DZILAM,27/05/19,21.39055556,-88.90416667,YC05,NA,NA,31.96414,25.78854,NA,NA,28.47495,NA,NA,NA,0,NA,1
DZILAM,08/04/19,21.39055556,-88.90416667,YC05,39.8,24,32.76923,25.03265,-7.03077,1.03265,28.35889,NA,NA,NA,0,NA,1
DZILAM,09/03/19,21.39055556,-88.90416667,YC05,38,18.6,32.32928,21.51666,-5.67072,2.91666,26.1709,27.3,70,1013.4,0,272.5,1
DZILAM,31/01/19,21.39055556,-88.90416667,YC05,27.9,18,28.18668,19.70779,0.28668,1.70779,23.1377,22.2,88,1017.9,0,223.5,0
DZILAM,09/04/19,21.39055556,-88.90416667,YC05,32.1,22.1,28.19012,24.03629,-3.90988,1.93629,25.53995,24.8,94,1012.5,18.4,51.8,1
DZILAM,10/03/19,21.39055556,-88.90416667,YC05,38.4,22.5,32.22525,23.33856,-6.17475,0.83856,27.66187,29.5,65,1014.1,0,290,0
DZILAM,10/04/19,21.39055556,-88.90416667,YC05,27.1,27.1,29.99704,21.40829,2.89704,-5.69171,24.77881,NA,NA,0,274.8,NA,0
DZILAM,10/06/19,21.39055556,-88.90416667,YC05,NA,NA,34.24503,27.43262,NA,NA,30.26254,NA,NA,NA,NA,NA,0
DZILAM,11/05/19,21.39055556,-88.90416667,YC05,NA,NA,35.24979,26.07593,NA,NA,30.09708,NA,NA,NA,NA,NA,1
DZILAM,11/06/19,21.39055556,-88.90416667,YC05,NA,NA,34.58301,26.46786,NA,NA,29.70663,NA,NA,NA,NA,NA,0
DZILAM,12/02/19,21.39055556,-88.90416667,YC05,30.6,20.4,29.51395,22.27789,-1.08605,1.87789,25.56418,23.8,86,1013.7,0.4,152.1,1
DZILAM,12/03/19,21.39055556,-88.90416667,YC05,31,22.9,31.48999,23.68887,0.48999,0.78887,27.24091,26.6,83,1017,0,269.9,0
DZILAM,12/04/19,21.39055556,-88.90416667,YC05,NA,NA,34.46555,22.78302,NA,NA,27.95688,NA,NA,NA,0,NA,0
DZILAM,12/06/19,21.39055556,-88.90416667,YC05,NA,NA,34.34869,25.17725,NA,NA,28.73175,NA,NA,NA,NA,NA,0
DZILAM,13/02/19,21.39055556,-88.90416667,YC05,23.9,21.7,24.86996,22.39478,0.96996,0.69478,23.58752,23,89,1016.7,0.2,144.3,1
DZILAM,13/03/19,21.39055556,-88.90416667,YC05,38,21.8,32.27014,23.12955,-5.72986,1.32955,27.34763,28.5,69,1013.1,0,276.5,1
DZILAM,13/06/19,21.39055556,-88.90416667,YC05,NA,NA,31.83713,25.83542,NA,NA,28.22418,NA,NA,NA,NA,NA,0
DZILAM,14/03/19,21.39055556,-88.90416667,YC05,39.8,21.3,32.85904,23.78693,-6.94096,2.48693,27.85849,29.4,62,1011.8,0,304,1
DZILAM,14/05/19,21.39055556,-88.90416667,YC05,NA,NA,35.82742,25.88782,NA,NA,29.87061,NA,NA,NA,0,NA,0
DZILAM,15/05/19,21.39055556,-88.90416667,YC05,NA,NA,34.21222,26.40594,NA,NA,29.66504,NA,NA,917.2,0,354,0
DZILAM,16/03/19,21.39055556,-88.90416667,YC05,36,20.4,31.73529,23.33679,-4.26471,2.93679,27.54279,26.7,79,1016.5,0,306.7,0
DZILAM,17/03/19,21.39055556,-88.90416667,YC05,37.2,21.8,31.05206,23.25848,-6.14794,1.45848,26.73157,27.3,80,1016.3,0,280.5,1
DZILAM,17/04/19,21.39055556,-88.90416667,YC05,NA,NA,33.36569,24.29858,NA,NA,28.52469,NA,NA,NA,0,NA,1
DZILAM,18/02/19,21.39055556,-88.90416667,YC05,35.8,23.7,33.1507,23.11584,-2.6493,-0.58416,27.43555,28.3,73,1011.3,0,258,0
DZILAM,18/03/19,21.39055556,-88.90416667,YC05,32.2,21.8,31.83954,23.71927,-0.36046,1.91927,26.70251,26.2,82,1014.8,11.2,135.6,0
DZILAM,19/03/19,21.39055556,-88.90416667,YC05,30,21.4,27.25397,23.20276,-2.74603,1.80276,24.63748,24,90,1014.7,23,183.5,0
DZILAM,19/05/19,21.39055556,-88.90416667,YC05,NA,NA,34.23059,26.38071,NA,NA,29.92578,NA,NA,916.2,0,0,0
DZILAM,20/02/19,21.39055556,-88.90416667,YC05,33.7,22.2,31.53128,23.8244,-2.16872,1.6244,27.31824,27.5,71,1011.7,0,265.9,0
DZILAM,20/05/19,21.39055556,-88.90416667,YC05,NA,NA,33.87045,26.17749,NA,NA,29.88904,NA,NA,917.8,0,349.4,0
DZILAM,21/03/19,21.39055556,-88.90416667,YC05,33.1,22.8,26.8913,21.99915,-6.2087,-0.80085,24.26514,26,73,1018,0,292.8,0
DZILAM,21/04/19,21.39055556,-88.90416667,YC05,NA,NA,30.38681,20.66403,NA,NA,24.59711,NA,NA,0,NA,NA,0
DZILAM,22/02/19,21.39055556,-88.90416667,YC05,33.1,22.7,31.76373,23.46912,-1.33627,0.76912,27.1163,27.5,72,1013.4,2.8,224.5,1
DZILAM,22/03/19,21.39055556,-88.90416667,YC05,30,22,26.82129,21.1882,-3.17871,-0.8118,23.57895,24.4,68,1018.9,0,312.9,0
DZILAM,23/02/19,21.39055556,-88.90416667,YC05,33.7,20.8,31.4436,23.32874,-2.2564,2.52874,27.19778,26.9,69,1014.5,0,258.9,0
DZILAM,23/03/19,21.39055556,-88.90416667,YC05,28.8,16.5,27.42395,20.078,-1.37605,3.578,23.46353,22.4,72,1018.6,0,315.1,0
DZILAM,24/05/19,21.39055556,-88.90416667,YC05,NA,NA,33.02054,25.87134,NA,NA,29.16992,NA,NA,918.3,0,0,1
DZILAM,25/02/19,21.39055556,-88.90416667,YC05,28.2,22.1,31.16626,23.45749,2.96626,1.35749,26.6846,25.2,89,1018.4,3.2,204.5,0
DZILAM,25/04/19,21.39055556,-88.90416667,YC05,NA,NA,35.20105,24.31467,NA,NA,28.8996,NA,NA,NA,0,NA,1
DZILAM,25/05/19,21.39055556,-88.90416667,YC05,NA,NA,31.50473,25.54468,NA,NA,28.30823,NA,NA,918.9,0,0,0
DZILAM,26/03/19,21.39055556,-88.90416667,YC05,33.8,20.9,28.50134,23.57175,-5.29866,2.67175,25.65991,26.6,84,1017.2,0,317.7,0
DZILAM,28/02/19,21.39055556,-88.90416667,YC05,33.5,19.5,31.43527,22.47672,-2.06473,2.97672,26.48721,25.4,78,1015.6,0,249.5,0
DZILAM,28/05/19,21.39055556,-88.90416667,YC05,NA,NA,33.01254,25.87167,NA,NA,29.15414,NA,NA,NA,NA,NA,0
DZILAM,29/04/19,21.39055556,-88.90416667,YC05,NA,NA,33.3392,25.23376,NA,NA,28.99167,NA,NA,0,276.7,NA,0
DZILAM,31/03/19,21.39055556,-88.90416667,YC05,33.3,18.9,30.03613,21.96829,-3.26387,3.06829,25.80872,26.8,73,1014.1,0,354.5,1
DZILAM,31/05/19,21.39055556,-88.90416667,YC05,NA,NA,31.22733,27.14172,NA,NA,29.06799,NA,NA,916.9,4,NA,1
RIO LAGARTOS,01/02/19,21.57138889,-88.16027778,YC03,23.3,19.2,30.16904,20.25754,6.86904,1.05754,24.52774,23.8,NA,NA,0,NA,0
RIO LAGARTOS,03/06/19,21.57138889,-88.16027778,YC03,35.8,24.9,33.98145,26.41516,-1.81855,1.51516,29.61765,NA,NA,NA,NA,NA,0
RIO LAGARTOS,01/03/19,21.57138889,-88.16027778,YC03,30,19.5,31.40952,21.58661,1.40952,2.08661,26.20096,25,75,1015.7,0,196.8,1
RIO LAGARTOS,06/06/19,21.57138889,-88.16027778,YC03,38.2,24.6,36.52411,25.24442,-1.67589,0.64442,30.6167,NA,NA,NA,NA,NA,0
RIO LAGARTOS,01/04/19,21.57138889,-88.16027778,YC03,31.3,21.1,32.27667,22.46909,0.97667,1.36909,26.63657,25.9,78,1014.8,0,281.1,0
RIO LAGARTOS,06/07/19,21.57138889,-88.16027778,YC03,33.3,23.2,32.05374,25.57846,-1.24626,2.37846,28.55215,28.1,76,1016.2,0.2,278.6,0
RIO LAGARTOS,06/07/19,21.57138889,-88.16027778,YC03,33.3,23.2,32.05374,25.57846,-1.24626,2.37846,28.55215,28.1,76,1016.2,0.2,278.6,0
RIO LAGARTOS,01/06/19,21.57138889,-88.16027778,YC03,34.7,25.2,32.91803,26.03998,-1.78197,0.83998,29.06433,NA,NA,NA,NA,NA,1
RIO LAGARTOS,08/03/19,21.57138889,-88.16027778,YC03,29.8,17.3,30.70276,20.95148,0.90276,3.65148,25.04074,23.7,72,1017.4,0,292.4,0
RIO LAGARTOS,01/07/19,21.57138889,-88.16027778,YC03,32.5,23.7,30.38794,25.57849,-2.11206,1.87849,27.63095,27.1,83,1016.5,2.8,186.4,1
RIO LAGARTOS,01/07/19,21.57138889,-88.16027778,YC03,32.5,23.7,30.38794,25.57849,-2.11206,1.87849,27.63095,27.1,83,1016.5,2.8,186.4,1
RIO LAGARTOS,08/05/19,21.57138889,-88.16027778,YC03,35.8,23.8,34.44781,24.39706,-1.35219,0.59706,29.1915,29.4,67,1010.9,0,260.1,0
RIO LAGARTOS,02/03/19,21.57138889,-88.16027778,YC03,33.3,20.6,31.83478,22.46448,-1.46522,1.86448,26.82455,26.2,71,1016,0,225.7,0
RIO LAGARTOS,11/02/19,21.57138889,-88.16027778,YC03,31.2,19.8,30.12253,21.54633,-1.07747,1.74633,25.55081,25.3,73,1015.2,0,210.1,1
RIO LAGARTOS,03/03/19,21.57138889,-88.16027778,YC03,35.5,19.9,32.32327,21.84952,-3.17673,1.94952,26.75043,26.8,66,1013.8,0,253.1,1
RIO LAGARTOS,03/04/19,21.57138889,-88.16027778,YC03,30.9,21.5,32.33054,23.16669,1.43054,1.66669,27.48434,26.5,75,1018.1,0,276,1
RIO LAGARTOS,11/03/19,21.57138889,-88.16027778,YC03,30.8,22.4,32.39465,22.92856,1.59465,0.52856,27.336,26.5,75,1017.1,0,278.2,1
RIO LAGARTOS,13/04/19,21.57138889,-88.16027778,YC03,35.9,23.8,34.314,24.99271,-1.586,1.19271,29.10168,29.1,67,1007.6,0,281.8,0
RIO LAGARTOS,03/07/19,21.57138889,-88.16027778,YC03,33,23.7,32.19183,24.70975,-0.80817,1.00975,28.09384,28.5,80,1014.7,0,312.9,0
RIO LAGARTOS,03/07/19,21.57138889,-88.16027778,YC03,33,23.7,32.19183,24.70975,-0.80817,1.00975,28.09384,28.5,80,1014.7,0,312.9,0
RIO LAGARTOS,16/07/19,21.57138889,-88.16027778,YC03,32.7,24.5,32.12656,25.95187,-0.57344,1.45187,28.82016,28.2,81,1015.6,0,178.6,1
RIO LAGARTOS,16/07/19,21.57138889,-88.16027778,YC03,32.7,24.5,32.12656,25.95187,-0.57344,1.45187,28.82016,28.2,81,1015.6,0,178.6,1
RIO LAGARTOS,04/03/19,21.57138889,-88.16027778,YC03,32.7,19.7,32.75607,21.68848,0.05607,1.98848,26.91528,26.1,73,1012.9,0,228.3,0
RIO LAGARTOS,18/05/19,21.57138889,-88.16027778,YC03,34.4,24.4,34.42554,25.97855,0.02554,1.57855,29.76447,28.6,76,1010.3,0,251.9,0
RIO LAGARTOS,04/04/19,21.57138889,-88.16027778,YC03,36.1,22.1,33.25592,22.65649,-2.84408,0.55649,27.62939,28,65,1017.4,0,294.1,0
RIO LAGARTOS,19/02/19,21.57138889,-88.16027778,YC03,33.3,22.3,31.79611,22.58496,-1.50389,0.28496,26.91129,27.2,73,1014.5,0,209.3,1
RIO LAGARTOS,04/06/19,21.57138889,-88.16027778,YC03,35.1,24.2,35.58124,25.60461,0.48124,1.40461,30.33124,NA,NA,NA,NA,NA,0
RIO LAGARTOS,21/02/19,21.57138889,-88.16027778,YC03,32.9,21.2,30.66064,22.45624,-2.23936,1.25624,26.52145,26.5,71,1012.7,0,197.2,0
RIO LAGARTOS,05/03/19,21.57138889,-88.16027778,YC03,31.9,19,31.77252,22.61761,-0.12748,3.61761,26.61835,25.4,76,1015.8,0,253.6,1
RIO LAGARTOS,21/06/19,21.57138889,-88.16027778,YC03,33.7,25,35.09003,26.17398,1.39003,1.17398,30.28549,NA,NA,NA,NA,NA,0
RIO LAGARTOS,23/06/19,21.57138889,-88.16027778,YC03,40.4,25.4,35.06836,26.27454,-5.33164,0.87454,30.2616,NA,NA,NA,NA,NA,0
RIO LAGARTOS,05/04/19,21.57138889,-88.16027778,YC03,35,21,33.49747,22.68756,-1.50253,1.68756,27.82278,27.5,67,1014.6,0,248.9,1
RIO LAGARTOS,24/02/19,21.57138889,-88.16027778,YC03,31.3,19.8,31.51755,22.27878,0.21755,2.47878,26.46689,25.5,78,1015.8,0,227,1
RIO LAGARTOS,05/06/19,21.57138889,-88.16027778,YC03,36.2,24.2,35.60757,25.82727,-0.59243,1.62727,30.51624,NA,NA,NA,NA,NA,0
RIO LAGARTOS,24/04/19,21.57138889,-88.16027778,YC03,31.9,22.2,33.86115,23.17679,1.96115,0.97679,28.15375,27.2,70,1012.4,0,254.1,1
RIO LAGARTOS,05/07/19,21.57138889,-88.16027778,YC03,33,24.7,31.5748,26.22549,-1.4252,1.52549,28.36557,28.4,81,1015,5.4,215.3,0
RIO LAGARTOS,05/07/19,21.57138889,-88.16027778,YC03,33,24.7,31.5748,26.22549,-1.4252,1.52549,28.36557,28.4,81,1015,5.4,215.3,0
RIO LAGARTOS,25/03/19,21.57138889,-88.16027778,YC03,30.8,19.3,30.1972,22.09625,-0.6028,2.79625,25.52078,25.2,79,1016,0,273.8,1
RIO LAGARTOS,06/03/19,21.57138889,-88.16027778,YC03,25.6,23.7,27.15411,23.22586,1.55411,-0.47414,24.8381,24.6,74,1021,0,91.7,0
RIO LAGARTOS,26/02/19,21.57138889,-88.16027778,YC03,33.5,18.1,31.5332,22.02106,-1.9668,3.92106,26.37405,25.4,72,1018.7,0,274.2,0
RIO LAGARTOS,06/04/19,21.57138889,-88.16027778,YC03,35.2,21.9,33.25729,23.15436,-1.94271,1.25436,27.89462,28,67,1014,0,260.2,0
RIO LAGARTOS,26/04/19,21.57138889,-88.16027778,YC03,34,22.6,34.7782,24.97028,0.7782,2.37028,29.15393,28,72,1012.1,0,260.9,0
RIO LAGARTOS,07/02/19,21.57138889,-88.16027778,YC03,31.5,19.3,30.3045,21.04196,-1.1955,1.74196,25.20383,24.4,75,1015.4,0,235.3,1
RIO LAGARTOS,26/05/19,21.57138889,-88.16027778,YC03,31.9,23.8,32.38611,24.42169,0.48611,0.62169,28.20667,27.9,74,1014.3,0,312.1,0
RIO LAGARTOS,07/03/19,21.57138889,-88.16027778,YC03,27.9,20.6,29.09006,20.66663,1.19006,0.06663,24.31665,24,64,1020.9,0,277.5,0
RIO LAGARTOS,27/02/19,21.57138889,-88.16027778,YC03,32.9,19.9,31.38287,21.59637,-1.51713,1.69637,26.01486,25.4,71,1017.7,0,277.3,0
RIO LAGARTOS,07/06/19,21.57138889,-88.16027778,YC03,40.1,24.5,36.57013,25.67175,-3.52987,1.17175,31.01508,NA,NA,NA,NA,NA,0
RIO LAGARTOS,27/04/19,21.57138889,-88.16027778,YC03,31,22.4,33.19388,24.70126,2.19388,2.30126,28.1022,27.2,79,1012.8,0,211.4,1
RIO LAGARTOS,27/05/19,21.57138889,-88.16027778,YC03,32.6,25.4,31.6221,25.69525,-0.9779,0.29525,28.72784,28.5,77,1013.2,0,300.2,1
RIO LAGARTOS,07/07/19,21.57138889,-88.16027778,YC03,33.8,22.7,31.5011,25.42883,-2.2989,2.72883,28.35263,28.7,76,1016,0,298.3,1
RIO LAGARTOS,07/07/19,21.57138889,-88.16027778,YC03,33.8,22.7,31.5011,25.42883,-2.2989,2.72883,28.35263,28.7,76,1016,0,298.3,1
RIO LAGARTOS,30/05/19,21.57138889,-88.16027778,YC03,33,24.7,34.30975,26.50134,1.30975,1.80134,30.19162,29.2,73,1009.1,0,303,1
RIO LAGARTOS,08/04/19,21.57138889,-88.16027778,YC03,37,22.8,33.03131,24.11026,-3.96869,1.31026,28.09811,29,63,1012.2,0,248.9,1
RIO LAGARTOS,09/03/19,21.57138889,-88.16027778,YC03,34.9,18,32.64426,20.89493,-2.25574,2.89493,25.97681,25.7,69,1013.6,0,237,0
RIO LAGARTOS,31/01/19,21.57138889,-88.16027778,YC03,27.6,18.5,28.75449,19.31241,1.15449,0.81241,23.17563,22.5,83,1017.8,0,220,0
RIO LAGARTOS,09/04/19,21.57138889,-88.16027778,YC03,31.7,21.7,28.41913,23.45706,-3.28087,1.75706,25.59692,25.7,77,1012.2,8.8,111.3,1
RIO LAGARTOS,09/07/19,21.57138889,-88.16027778,YC03,34.4,23.3,33.37463,25.52631,-1.02537,2.22631,28.98605,27.8,79,1015.2,16.2,230.1,1
RIO LAGARTOS,09/07/19,21.57138889,-88.16027778,YC03,34.4,23.3,33.37463,25.52631,-1.02537,2.22631,28.98605,27.8,79,1015.2,16.2,230.1,1
RIO LAGARTOS,10/03/19,21.57138889,-88.16027778,YC03,34.3,21.9,32.85413,22.50931,-1.44587,0.60931,27.44394,27.5,70,1014.6,0,269,1
RIO LAGARTOS,10/04/19,21.57138889,-88.16027778,YC03,29.1,16.7,30.26038,21.55865,1.16038,4.85865,24.85938,23.4,75,1011.9,0,331.5,0
RIO LAGARTOS,10/05/19,21.57138889,-88.16027778,YC03,37.6,24.1,34.88904,25.54239,-2.71096,1.44239,29.84048,30.4,62,1009.7,0,291.3,1
RIO LAGARTOS,10/06/19,21.57138889,-88.16027778,YC03,34.5,25.1,35.55057,27.1926,1.05057,2.0926,30.94513,NA,NA,NA,NA,NA,0
RIO LAGARTOS,10/07/19,21.57138889,-88.16027778,YC03,34.1,23.3,33.85953,24.30673,-0.24047,1.00673,28.68845,27.9,81,1014.7,0,282.8,1
RIO LAGARTOS,10/07/19,21.57138889,-88.16027778,YC03,34.1,23.3,33.85953,24.30673,-0.24047,1.00673,28.68845,27.9,81,1014.7,0,282.8,1
RIO LAGARTOS,11/04/19,21.57138889,-88.16027778,YC03,35.7,16.7,33.56259,20.3559,-2.13741,3.6559,25.81372,24.6,68,1008.7,0,325.5,0
RIO LAGARTOS,11/05/19,21.57138889,-88.16027778,YC03,37.7,24.6,35.16739,25.3588,-2.53261,0.7588,29.89496,30.6,61,1010.2,0,274.1,1
RIO LAGARTOS,11/06/19,21.57138889,-88.16027778,YC03,34.2,23.7,34.77554,26.42291,0.57554,2.72291,30.21515,NA,NA,NA,NA,NA,0
RIO LAGARTOS,12/02/19,21.57138889,-88.16027778,YC03,31.4,19.4,29.67554,21.52969,-1.72446,2.12969,25.04916,24.3,78,1013.7,3.8,145.5,1
RIO LAGARTOS,12/03/19,21.57138889,-88.16027778,YC03,30.7,22.6,32.1243,22.97473,1.4243,0.37473,27.20032,26.4,77,1017.1,0,271.9,0
RIO LAGARTOS,12/04/19,21.57138889,-88.16027778,YC03,37.3,19.5,34.29965,21.60019,-3.00035,2.10019,27.4191,27.8,60,1008.1,0,325.9,0
RIO LAGARTOS,12/06/19,21.57138889,-88.16027778,YC03,36.2,22.5,33.81854,25.09769,-2.38146,2.59769,28.81607,NA,NA,NA,NA,NA,0
RIO LAGARTOS,13/02/19,21.57138889,-88.16027778,YC03,26,21.3,25.73331,22.31854,-0.26669,1.01854,23.62027,23.1,84,1015.9,31,140.8,1
RIO LAGARTOS,13/03/19,21.57138889,-88.16027778,YC03,35,21.7,32.86554,22.09158,-2.13446,0.39158,27.06488,27.4,68,1013.5,0,272.1,0
RIO LAGARTOS,13/06/19,21.57138889,-88.16027778,YC03,33.8,23.5,32.87689,25.62589,-0.92311,2.12589,28.60333,NA,NA,NA,NA,NA,0
RIO LAGARTOS,14/03/19,21.57138889,-88.16027778,YC03,36.1,21,33.35306,22.00201,-2.74694,1.00201,27.36755,27.7,61,1012.3,0,293.4,1
RIO LAGARTOS,14/05/19,21.57138889,-88.16027778,YC03,39.3,34.4,35.8067,25.43619,-3.4933,-8.96381,30.2341,NA,NA,NA,0,NA,0
RIO LAGARTOS,14/07/19,21.57138889,-88.16027778,YC03,33.3,23.9,32.41357,25.66232,-0.88643,1.76232,28.82898,28.1,79,1014.2,4.6,299.3,1
RIO LAGARTOS,14/07/19,21.57138889,-88.16027778,YC03,33.3,23.9,32.41357,25.66232,-0.88643,1.76232,28.82898,28.1,79,1014.2,4.6,299.3,1
RIO LAGARTOS,15/05/19,21.57138889,-88.16027778,YC03,36.3,24.2,35.03006,25.8562,-1.26994,1.6562,30.11752,29.5,71,1011,0,280.7,0
RIO LAGARTOS,15/06/19,21.57138889,-88.16027778,YC03,33.3,25.8,31.06506,26.44727,-2.23494,0.64727,28.30951,NA,NA,NA,NA,NA,1
RIO LAGARTOS,15/07/19,21.57138889,-88.16027778,YC03,32.9,25.2,32.73615,25.9935,-0.16385,0.7935,29.10684,29,78,1014.4,0,288.5,1
RIO LAGARTOS,15/07/19,21.57138889,-88.16027778,YC03,32.9,25.2,32.73615,25.9935,-0.16385,0.7935,29.10684,29,78,1014.4,0,288.5,1
RIO LAGARTOS,16/03/19,21.57138889,-88.16027778,YC03,31.3,19.6,32.40219,22.1868,1.10219,2.5868,27.2276,25.7,76,1016.6,0,293.6,0
RIO LAGARTOS,16/04/19,21.57138889,-88.16027778,YC03,30.6,25,32.48508,23.73901,1.88508,-1.26099,27.23947,27.1,77,1016.5,0,329.1,0
RIO LAGARTOS,16/05/19,21.57138889,-88.16027778,YC03,32.5,23.8,31.99734,26.47375,-0.50266,2.67375,29.15216,28.4,80,1012.1,0,269.7,1
RIO LAGARTOS,16/06/19,21.57138889,-88.16027778,YC03,32.7,25.8,31.82025,26.35464,-0.87975,0.55464,28.33633,NA,NA,NA,NA,NA,0
RIO LAGARTOS,17/03/19,21.57138889,-88.16027778,YC03,30.7,19.8,32.14691,22.84888,1.44691,3.04888,26.83865,25.5,79,1016.1,0,259.5,0
RIO LAGARTOS,17/04/19,21.57138889,-88.16027778,YC03,31.7,23,33.58801,23.33841,1.88801,0.33841,28.07919,27.2,78,1013.9,0,300.5,1
RIO LAGARTOS,17/05/19,21.57138889,-88.16027778,YC03,33.1,23.6,33.50262,26.01022,0.40262,2.41022,29.2146,28.2,79,1011.5,0,301.1,0
RIO LAGARTOS,17/07/19,21.57138889,-88.16027778,YC03,33.1,24.1,31.75058,25.81573,-1.34942,1.71573,28.39642,28.7,79,1016.3,0,285.8,0
RIO LAGARTOS,17/07/19,21.57138889,-88.16027778,YC03,33.1,24.1,31.75058,25.81573,-1.34942,1.71573,28.39642,28.7,79,1016.3,0,285.8,0
RIO LAGARTOS,18/02/19,21.57138889,-88.16027778,YC03,33.8,22.5,32.7644,22.29257,-1.0356,-0.20743,26.82684,27.1,76,1011.6,0,229.5,0
RIO LAGARTOS,18/03/19,21.57138889,-88.16027778,YC03,32.9,22.5,31.97537,23.2916,-0.92463,0.7916,26.79755,25.8,77,1014.6,0,155.4,0
RIO LAGARTOS,18/06/19,21.57138889,-88.16027778,YC03,39,25.6,34.87756,25.88794,-4.12244,0.28794,29.94418,NA,NA,NA,NA,NA,0
RIO LAGARTOS,19/03/19,21.57138889,-88.16027778,YC03,28.1,21.3,27.44531,22.90201,-0.65469,1.60201,24.82077,24.4,84,1014.1,52.8,202.5,0
RIO LAGARTOS,19/05/19,21.57138889,-88.16027778,YC03,37.5,24,34.55057,25.69739,-2.94943,1.69739,29.92496,30.3,63,1010.2,0,284,0
RIO LAGARTOS,19/07/19,21.57138889,-88.16027778,YC03,32.7,22,33.00742,25.02408,0.30742,3.02408,28.83408,27.9,77,1015.2,0,314.1,1
RIO LAGARTOS,19/07/19,21.57138889,-88.16027778,YC03,32.7,22,33.00742,25.02408,0.30742,3.02408,28.83408,27.9,77,1015.2,0,314.1,1
RIO LAGARTOS,20/02/19,21.57138889,-88.16027778,YC03,33.2,22.6,31.7128,22.3598,-1.4872,-0.2402,26.65082,27,72,1012.3,0,253,0
RIO LAGARTOS,20/05/19,21.57138889,-88.16027778,YC03,32.9,23.9,34.18024,25.7652,1.28024,1.8652,29.79001,28.9,70,1011.7,0,299,0
RIO LAGARTOS,20/07/19,21.57138889,-88.16027778,YC03,33.2,24.1,32.62445,26.24854,-0.57555,2.14854,28.86606,28.9,77,1014.4,0,305,1
RIO LAGARTOS,20/07/19,21.57138889,-88.16027778,YC03,33.2,24.1,32.62445,26.24854,-0.57555,2.14854,28.86606,28.9,77,1014.4,0,305,1
RIO LAGARTOS,21/03/19,21.57138889,-88.16027778,YC03,27.8,18.5,27.25595,21.3732,-0.54405,2.8732,24.05026,23.7,73,1017.6,0,247.3,0
RIO LAGARTOS,21/04/19,21.57138889,-88.16027778,YC03,28.9,13,30.77658,20.4946,1.87658,7.4946,24.65631,21.9,65,1017.8,0,333.3,0
RIO LAGARTOS,21/07/19,21.57138889,-88.16027778,YC03,32.4,23.8,32.51749,25.41193,0.11749,1.61193,28.59421,27.7,83,1014.4,0.2,117.9,0
RIO LAGARTOS,21/07/19,21.57138889,-88.16027778,YC03,32.4,23.8,32.51749,25.41193,0.11749,1.61193,28.59421,27.7,83,1014.4,0.2,117.9,0
RIO LAGARTOS,22/02/19,21.57138889,-88.16027778,YC03,33.2,23.5,31.96823,22.81152,-1.23177,-0.68848,26.78589,27.4,70,1013.9,0.2,218.8,1
RIO LAGARTOS,22/03/19,21.57138889,-88.16027778,YC03,27.8,19.7,27.04761,20.46222,-0.75239,0.76222,23.22076,23.8,58,1018.4,0,257.8,0
RIO LAGARTOS,22/04/19,21.57138889,-88.16027778,YC03,29.9,18.7,31.46481,20.85498,1.56481,2.15498,25.79974,24.7,66,1016.8,0,335,1
RIO LAGARTOS,22/06/19,21.57138889,-88.16027778,YC03,34.4,26.2,34.71768,26.36224,0.31768,0.16224,30.22855,NA,NA,NA,NA,NA,0
RIO LAGARTOS,23/02/19,21.57138889,-88.16027778,YC03,34.1,19.9,31.47299,21.70767,-2.62701,1.80767,26.46759,26.5,69,1014.8,0,251.6,1
RIO LAGARTOS,23/03/19,21.57138889,-88.16027778,YC03,27,13.7,27.51154,19.4993,0.51154,5.7993,23.00146,21.2,66,1018.6,0,248,0
RIO LAGARTOS,23/04/19,21.57138889,-88.16027778,YC03,30.4,18.8,32.86786,21.63962,2.46786,2.83962,26.75284,25.2,74,1014.7,0,326.6,1
RIO LAGARTOS,23/05/19,21.57138889,-88.16027778,YC03,31.9,28.4,33.34076,25.21606,1.44076,-3.18394,29.22357,NA,NA,NA,0,NA,1
RIO LAGARTOS,24/05/19,21.57138889,-88.16027778,YC03,32,24.2,33.64169,24.89389,1.64169,0.69389,28.97336,28.1,76,1013.8,0,312.1,1
RIO LAGARTOS,25/02/19,21.57138889,-88.16027778,YC03,29.2,21.1,31.54544,22.92014,2.34544,1.82014,26.76303,25.4,82,1018.2,0.2,176.8,0
RIO LAGARTOS,25/04/19,21.57138889,-88.16027778,YC03,37.6,21.9,35.08258,23.61951,-2.51742,1.71951,28.83264,28.9,61,1010.4,0,281.9,1
RIO LAGARTOS,25/05/19,21.57138889,-88.16027778,YC03,31.4,24.7,32.06601,25.08536,0.66601,0.38536,28.27045,27.9,73,1014.1,0,308.8,0
RIO LAGARTOS,26/03/19,21.57138889,-88.16027778,YC03,30,19.7,28.8595,22.92072,-1.1405,3.22072,25.51654,25.5,79,1016.9,0,260.7,0
RIO LAGARTOS,27/07/19,21.57138889,-88.16027778,YC03,32.1,24.4,31.20908,26.25977,-0.89092,1.85977,28.4491,28,85,1018.4,0.2,255.4,1
RIO LAGARTOS,27/07/19,21.57138889,-88.16027778,YC03,32.1,24.4,31.20908,26.25977,-0.89092,1.85977,28.4491,28,85,1018.4,0.2,255.4,1
RIO LAGARTOS,28/02/19,21.57138889,-88.16027778,YC03,32.3,18.9,31.77322,21.65469,-0.52678,2.75469,26.18494,25,75,1015.8,0,239.2,0
RIO LAGARTOS,28/05/19,21.57138889,-88.16027778,YC03,31.7,25.1,33.7326,24.94473,2.0326,-0.15527,29.27963,28.3,75,1011.2,0,307.6,0
RIO LAGARTOS,28/06/19,21.57138889,-88.16027778,YC03,32,24.1,31.0058,25.79562,-0.9942,1.69562,28.00128,NA,NA,NA,NA,NA,0
RIO LAGARTOS,28/07/19,21.57138889,-88.16027778,YC03,32.7,25.7,31.33133,26.44458,-1.36867,0.74458,28.57684,29,80,1018,0,312.6,0
RIO LAGARTOS,28/07/19,21.57138889,-88.16027778,YC03,32.7,25.7,31.33133,26.44458,-1.36867,0.74458,28.57684,29,80,1018,0,312.6,0
RIO LAGARTOS,29/04/19,21.57138889,-88.16027778,YC03,32.3,24,33.99423,24.67078,1.69423,0.67078,29.00775,28,72,1013.6,0,296.4,0
RIO LAGARTOS,29/07/19,21.57138889,-88.16027778,YC03,33.4,24.7,31.08246,25.92383,-2.31754,1.22383,28.15036,28.7,80,1016.1,0,305.6,0
RIO LAGARTOS,29/07/19,21.57138889,-88.16027778,YC03,33.4,24.7,31.08246,25.92383,-2.31754,1.22383,28.15036,28.7,80,1016.1,0,305.6,0
RIO LAGARTOS,30/07/19,21.57138889,-88.16027778,YC03,33.4,23.7,32.19156,26.19894,-1.20844,2.49894,28.73062,28.2,81,1014.8,0,278.5,0
RIO LAGARTOS,30/07/19,21.57138889,-88.16027778,YC03,33.4,23.7,32.19156,26.19894,-1.20844,2.49894,28.73062,28.2,81,1014.8,0,278.5,0
RIO LAGARTOS,31/03/19,21.57138889,-88.16027778,YC03,28.2,17.5,30.9455,21.42941,2.7455,3.92941,25.82819,NA,NA,NA,0,NA,1
RIO LAGARTOS,31/05/19,21.57138889,-88.16027778,YC03,32.5,25.2,32.03378,26.90109,-0.46622,1.70109,29.25098,28.5,78,1010.1,0.2,224.4,1
RIO LAGARTOS,31/07/19,21.57138889,-88.16027778,YC03,32.8,25.1,32.2186,26.57932,-0.5814,1.47932,29.07059,28.5,83,1014.2,0,183.1,0
RIO LAGARTOS,31/07/19,21.57138889,-88.16027778,YC03,32.8,25.1,32.2186,26.57932,-0.5814,1.47932,29.07059,28.5,83,1014.2,0,183.1,0
CELESTUN,01/02/19,20.85805556,-90.38305556,YC02,23.1,19.6,28.88635,21.44861,5.78635,1.84861,24.62256,NA,NA,0,NA,NA,0
CELESTUN,03/06/19,20.85805556,-90.38305556,YC02,32.1,25.2,29.95782,26.64191,-2.14218,1.44191,27.88632,NA,NA,NA,NA,NA,0
CELESTUN,01/03/19,20.85805556,-90.38305556,YC02,32.6,20.7,31.35815,23.50806,-1.24185,2.80806,27.3476,25.9,100,1014.5,0,285.5,1
CELESTUN,06/06/19,20.85805556,-90.38305556,YC02,34.4,24.8,33.08917,26.28027,-1.31083,1.48027,29.69397,NA,NA,NA,NA,NA,1
CELESTUN,01/04/19,20.85805556,-90.38305556,YC02,29.5,21.5,30.88663,23.70541,1.38663,2.20541,26.51846,25.4,100,1014.9,0,310.6,0
CELESTUN,06/07/19,20.85805556,-90.38305556,YC02,31.1,30.3,31.60455,26.36615,0.50455,-3.93385,28.63428,NA,NA,NA,0,NA,1
CELESTUN,06/07/19,20.85805556,-90.38305556,YC02,31.1,30.3,31.60455,26.36615,0.50455,-3.93385,28.63428,NA,NA,NA,0,NA,1
CELESTUN,01/06/19,20.85805556,-90.38305556,YC02,32.9,24.7,30.9436,26.96677,-1.9564,2.26677,28.47327,NA,NA,NA,NA,NA,0
CELESTUN,08/03/19,20.85805556,-90.38305556,YC02,32.1,19.3,31.17053,22.94147,-0.92947,3.64147,26.60913,24.6,100,1016.3,0,315.9,0
CELESTUN,08/05/19,20.85805556,-90.38305556,YC02,35.5,24.3,34.15799,25.30994,-1.34201,1.00994,29.5293,29.6,100,1009.1,0,334.2,0
CELESTUN,02/03/19,20.85805556,-90.38305556,YC02,33.8,21.4,31.54178,23.74969,-2.25822,2.34969,27.43561,26.1,100,1015,0,289.4,0
CELESTUN,11/02/19,20.85805556,-90.38305556,YC02,29.8,20.8,28.88229,22.52289,-0.91771,1.72289,25.50604,24.7,100,1014.7,0,218.8,1
CELESTUN,03/03/19,20.85805556,-90.38305556,YC02,32.6,21.6,31.96326,23.98511,-0.63674,2.38511,27.58319,26.1,100,1012.7,0,297.1,1
CELESTUN,03/04/19,20.85805556,-90.38305556,YC02,32.5,22.7,32.12393,24.75012,-0.37607,2.05012,27.54047,26.4,100,1017.3,0,303.1,1
CELESTUN,11/03/19,20.85805556,-90.38305556,YC02,35,22.8,31.95004,24.47379,-3.04996,1.67379,28.37067,28.7,100,1015.6,0,304.8,1
CELESTUN,13/04/19,20.85805556,-90.38305556,YC02,36.5,26.1,33.72687,26.03259,-2.77313,-0.06741,29.26706,29.5,100,1005.1,0,302.7,0
CELESTUN,03/07/19,20.85805556,-90.38305556,YC02,34.8,32.1,31.83664,25.47662,-2.96336,-6.62338,28.50192,NA,NA,NA,0,NA,1
CELESTUN,03/07/19,20.85805556,-90.38305556,YC02,34.8,32.1,31.83664,25.47662,-2.96336,-6.62338,28.50192,NA,NA,NA,0,NA,1
CELESTUN,04/03/19,20.85805556,-90.38305556,YC02,30.1,20.9,31.8692,24.14252,1.7692,3.24252,27.52878,25.5,100,1012.4,0,290.9,0
CELESTUN,18/05/19,20.85805556,-90.38305556,YC02,34.8,23.1,34.19458,26.73404,-0.60542,3.63404,30.08331,28.8,100,1009.1,0,306.8,0
CELESTUN,04/04/19,20.85805556,-90.38305556,YC02,33.9,22.7,32.78168,24.54813,-1.11832,1.84813,28.49893,27.2,100,1016.3,0,309.2,0
CELESTUN,19/02/19,20.85805556,-90.38305556,YC02,31.7,22.9,31.07718,24.32083,-0.62282,1.42083,27.2283,26.1,100,1012.9,0,251.1,1
CELESTUN,04/06/19,20.85805556,-90.38305556,YC02,32.8,24.9,32.74146,26.21527,-0.05854,1.31527,28.85889,NA,NA,NA,NA,NA,1
CELESTUN,21/02/19,20.85805556,-90.38305556,YC02,32.6,22.4,30.69696,23.84366,-1.90304,1.44366,27.22971,26.8,100,1011.1,0,225.1,0
CELESTUN,05/03/19,20.85805556,-90.38305556,YC02,29.5,22.8,30.24088,24.74792,0.74088,1.94792,26.98529,25.8,100,1015.8,0,264.8,1
CELESTUN,21/06/19,20.85805556,-90.38305556,YC02,37.5,30.7,33.48846,26.95087,-4.01154,-3.74913,29.95816,NA,NA,NA,NA,NA,1
CELESTUN,23/06/19,20.85805556,-90.38305556,YC02,38.1,32.4,34.28125,27.06442,-3.81875,-5.33558,30.27359,NA,NA,NA,NA,NA,1
CELESTUN,05/04/19,20.85805556,-90.38305556,YC02,33.9,22.7,33.2066,24.76544,-0.6934,2.06544,28.57123,26.8,100,1013.4,0,320.7,1
CELESTUN,24/02/19,20.85805556,-90.38305556,YC02,30.9,22,30.25525,24.11841,-0.64475,2.11841,27.13757,25.6,100,1014.9,0,265.3,1
CELESTUN,05/06/19,20.85805556,-90.38305556,YC02,36.4,24.1,33.1944,26.03351,-3.2056,1.93351,29.19391,NA,NA,NA,NA,NA,0
CELESTUN,24/04/19,20.85805556,-90.38305556,YC02,34.2,23.9,33.24811,24.98862,-0.95189,1.08862,28.47833,27.6,100,1011,0,322.6,1
CELESTUN,25/03/19,20.85805556,-90.38305556,YC02,30.1,20.2,29.87598,22.69611,-0.22402,2.49611,25.53693,24.2,100,1016.4,0,319.1,1
CELESTUN,06/03/19,20.85805556,-90.38305556,YC02,26.8,22.3,27.53558,23.97333,0.73558,1.67333,25.50836,24.4,100,1020.5,22.5,193.9,0
CELESTUN,26/02/19,20.85805556,-90.38305556,YC02,32.9,20.3,30.82697,22.91492,-2.07303,2.61492,26.83044,25.7,100,1017.9,0,287.7,0
CELESTUN,06/04/19,20.85805556,-90.38305556,YC02,34.8,23.5,33.13245,25.18524,-1.66755,1.68524,28.74756,28,100,1012.2,0,285.5,0
CELESTUN,26/04/19,20.85805556,-90.38305556,YC02,29.9,24,30.90479,25.56464,1.00479,1.56464,27.77942,27.1,100,1012.4,0,286.9,0
CELESTUN,07/02/19,20.85805556,-90.38305556,YC02,32.6,20.5,29.55338,22.37115,-3.04662,1.87115,25.70541,26.1,100,1014,0,280,1
CELESTUN,26/05/19,20.85805556,-90.38305556,YC02,32.8,23.9,32.8674,26.36737,0.0674,2.46737,29.01105,28.1,100,1013.7,0,320.8,0
CELESTUN,07/03/19,20.85805556,-90.38305556,YC02,30.2,21.5,29.74225,22.46558,-0.45775,0.96558,25.39343,24.6,100,1020.1,0,257.4,0
CELESTUN,27/02/19,20.85805556,-90.38305556,YC02,32.5,21.2,30.77011,22.95898,-1.72989,1.75898,26.66541,25.9,100,1016.8,0,274.9,0
CELESTUN,07/06/19,20.85805556,-90.38305556,YC02,34.5,25.1,33.26349,26.95142,-1.23651,1.85142,29.78632,NA,NA,NA,NA,NA,1
CELESTUN,27/04/19,20.85805556,-90.38305556,YC02,29.7,24.1,30.36337,25.23596,0.66337,1.13596,27.23914,26.8,100,1013.3,0,293.8,1
CELESTUN,27/05/19,20.85805556,-90.38305556,YC02,33.1,23.7,32.92426,26.26544,-0.17574,2.56544,28.95032,27.8,100,1012.8,0.3,325.7,1
CELESTUN,07/07/19,20.85805556,-90.38305556,YC02,31.2,31,31.55188,25.98297,0.35188,-5.01703,28.59802,NA,NA,NA,0,NA,0
CELESTUN,07/07/19,20.85805556,-90.38305556,YC02,31.2,31,31.55188,25.98297,0.35188,-5.01703,28.59802,NA,NA,NA,0,NA,0
CELESTUN,30/05/19,20.85805556,-90.38305556,YC02,34.7,26.3,34.43335,27.87335,-0.26665,1.57335,30.60443,30,100,1008,0,326.4,1
CELESTUN,08/04/19,20.85805556,-90.38305556,YC02,32.7,24.4,31.08966,25.73346,-1.61034,1.33346,28.52545,28.3,100,1011.4,0,288.7,0
CELESTUN,09/03/19,20.85805556,-90.38305556,YC02,33.5,20.5,32.31381,23.36383,-1.18619,2.86383,27.32983,26.3,100,1012.3,0,310.5,1
CELESTUN,31/01/19,20.85805556,-90.38305556,YC02,28.5,17.3,27.75281,20.03253,-0.74719,2.73253,23.17999,21.7,100,1017.3,0,NA,0
CELESTUN,09/04/19,20.85805556,-90.38305556,YC02,26.7,22.6,27.68655,24.72839,0.98655,2.12839,25.9765,25.1,100,1013,0.5,124.9,0
CELESTUN,10/03/19,20.85805556,-90.38305556,YC02,35.5,23.1,32.8999,24.29929,-2.6001,1.19929,28.36044,28,100,1012.9,0,295.8,0
CELESTUN,10/04/19,20.85805556,-90.38305556,YC02,27.6,18.9,29.20654,21.91406,1.60654,3.01406,24.71268,23.7,100,1012.8,0,347.1,0
CELESTUN,10/05/19,20.85805556,-90.38305556,YC02,38.2,26.8,33.61401,26.3797,-4.58599,-0.4203,30.01392,31.1,100,1007.4,0,310.1,1
CELESTUN,10/06/19,20.85805556,-90.38305556,YC02,32.9,25.9,32.09,27.8006,-0.81,1.9006,29.68201,NA,NA,NA,NA,NA,0
CELESTUN,11/04/19,20.85805556,-90.38305556,YC02,34.4,19.6,32.67383,21.97931,-1.72617,2.37931,26.13867,25.8,100,1007.7,0,338.1,0
CELESTUN,11/05/19,20.85805556,-90.38305556,YC02,36,24.9,34.34799,25.51086,-1.65201,0.61086,29.63617,29.9,100,1009,0,325.3,1
CELESTUN,11/06/19,20.85805556,-90.38305556,YC02,32.2,24.9,32.13516,27.19421,-0.06484,2.29421,29.09677,NA,NA,NA,NA,NA,0
CELESTUN,12/02/19,20.85805556,-90.38305556,YC02,30.7,20.8,29.21353,22.7258,-1.48647,1.9258,25.66843,24.5,100,1012.9,0,254.7,1
CELESTUN,12/03/19,20.85805556,-90.38305556,YC02,33.2,23,31.668,24.92834,-1.532,1.92834,28.05219,27.4,100,1015.9,0,302.7,0
CELESTUN,12/04/19,20.85805556,-90.38305556,YC02,36,23,34.17627,23.65573,-1.82373,0.65573,28.13208,27.9,100,1006,0,313.5,0
CELESTUN,12/06/19,20.85805556,-90.38305556,YC02,32.3,22.1,31.80359,26.43433,-0.49641,4.33433,28.73892,NA,NA,NA,NA,NA,1
CELESTUN,13/02/19,20.85805556,-90.38305556,YC02,25.1,22.4,24.92456,22.34613,-0.17544,-0.05387,23.55768,23.5,100,1017.3,0,98.5,1
CELESTUN,13/03/19,20.85805556,-90.38305556,YC02,35.3,22.9,32.67111,24.24817,-2.62889,1.34817,28.26376,27.8,100,1011.7,0,309.1,1
CELESTUN,13/06/19,20.85805556,-90.38305556,YC02,32.6,23.4,30.09067,26.7601,-2.50933,3.3601,28.21484,NA,NA,NA,NA,NA,0
CELESTUN,14/03/19,20.85805556,-90.38305556,YC02,34.8,23.2,33.22583,24.69995,-1.57417,1.49995,28.74313,28.1,100,1010.2,0,280.1,1
CELESTUN,14/05/19,20.85805556,-90.38305556,YC02,32.3,29.5,34.85876,26.91281,2.55876,-2.58719,30.18192,NA,NA,NA,0,NA,1
CELESTUN,15/05/19,20.85805556,-90.38305556,YC02,32.5,26.2,33.27765,27.63,0.77765,1.43,29.71375,28.8,100,1010.6,0,300.1,1
CELESTUN,15/06/19,20.85805556,-90.38305556,YC02,31.5,25,29.73746,25.88034,-1.76254,0.88034,27.67822,NA,NA,NA,NA,NA,1
CELESTUN,16/03/19,20.85805556,-90.38305556,YC02,30.1,22.5,31.77029,25.22607,1.67029,2.72607,27.89133,25.9,100,1016.2,0,297.6,0
CELESTUN,16/04/19,20.85805556,-90.38305556,YC02,33.3,23.2,31.98157,24.67206,-1.31843,1.47206,27.38409,26.7,100,1015.8,0,306.6,0
CELESTUN,16/05/19,20.85805556,-90.38305556,YC02,34,26.5,32.00812,27.42526,-1.99188,0.92526,29.34546,29.3,100,1011.7,0,292.2,1
CELESTUN,16/06/19,20.85805556,-90.38305556,YC02,33.5,29,29.85895,26.15195,-3.64105,-2.84805,27.71466,NA,NA,NA,NA,NA,0
CELESTUN,17/03/19,20.85805556,-90.38305556,YC02,29.7,22.8,31.06631,24.44833,1.36631,1.64833,27.09781,25.9,100,1015.9,0,270.2,0
CELESTUN,17/04/19,20.85805556,-90.38305556,YC02,34.1,23.7,33.09033,24.58127,-1.00967,0.88127,28.43307,27.7,100,1012.5,0,312,1
CELESTUN,17/05/19,20.85805556,-90.38305556,YC02,34.3,24,33.48398,27.10406,-0.81602,3.10406,29.65594,28.7,100,1010.8,0,301.1,0
CELESTUN,18/02/19,20.85805556,-90.38305556,YC02,32.8,22.7,31.56842,23.58731,-1.23158,0.88731,27.25378,26.6,100,1010,0,269.7,0
CELESTUN,18/03/19,20.85805556,-90.38305556,YC02,26.3,24.2,29.00232,24.01642,2.70232,-0.18358,26.08411,25.3,100,1014.7,0,83.7,1
CELESTUN,18/06/19,20.85805556,-90.38305556,YC02,34.8,29.7,32.32495,26.35388,-2.47505,-3.34612,29.02698,NA,NA,NA,NA,NA,1
CELESTUN,19/03/19,20.85805556,-90.38305556,YC02,28.5,23,27.20154,23.72839,-1.29846,0.72839,25.00208,25.3,100,1014.8,0,208.6,0
CELESTUN,19/05/19,20.85805556,-90.38305556,YC02,35.5,25.8,34.41766,27.31415,-1.08234,1.51415,30.4556,30.3,100,1008.5,0,312.3,0
CELESTUN,20/02/19,20.85805556,-90.38305556,YC02,34.8,21.9,31.54523,23.52875,-3.25477,1.62875,27.29449,26.7,100,1010.4,0,287,0
CELESTUN,20/05/19,20.85805556,-90.38305556,YC02,36.9,25.3,34.27673,26.72543,-2.62327,1.42543,30.34827,30,100,1010.2,0,318.5,0
CELESTUN,21/03/19,20.85805556,-90.38305556,YC02,26.9,21.1,27.05316,22.90649,0.15316,1.80649,24.84857,23.8,100,1018.3,0,273.8,0
CELESTUN,21/04/19,20.85805556,-90.38305556,YC02,29.7,15.9,30.38101,21.19232,0.68101,5.29232,24.83258,22.6,100,1017.6,0,343.3,0
CELESTUN,22/02/19,20.85805556,-90.38305556,YC02,34.1,22.4,32.03302,24.41211,-2.06698,2.01211,27.65601,26.9,100,1011.9,0,261.5,1
CELESTUN,22/03/19,20.85805556,-90.38305556,YC02,27.1,17.5,27.54129,21.72253,0.44129,4.22253,24.39044,22.4,100,1018.9,0,316.1,0
CELESTUN,22/04/19,20.85805556,-90.38305556,YC02,33.9,20.8,31.72131,23.51105,-2.17869,2.71105,26.97601,26,100,1015.3,0,330.5,1
CELESTUN,22/06/19,20.85805556,-90.38305556,YC02,36.5,31,33.26575,27.25574,-3.23425,-3.74426,30.16254,NA,NA,NA,NA,NA,1
CELESTUN,23/02/19,20.85805556,-90.38305556,YC02,31.7,22,31.37256,24.0787,-0.32744,2.0787,27.67029,26.9,100,1013.3,0,262.3,0
CELESTUN,23/03/19,20.85805556,-90.38305556,YC02,29.6,17.5,28.5217,21.12634,-1.0783,3.62634,24.3746,22.6,100,1018,0,310.5,0
CELESTUN,23/04/19,20.85805556,-90.38305556,YC02,32.6,21.8,32.29822,24.28546,-0.30178,2.48546,27.59784,26.5,100,1013.3,0,326.3,1
CELESTUN,23/05/19,20.85805556,-90.38305556,YC02,35.8,31.4,33.95523,27.15988,-1.84477,-4.24012,30.65213,NA,NA,NA,0,NA,1
CELESTUN,24/05/19,20.85805556,-90.38305556,YC02,34,24.8,33.35809,27.25522,-0.64191,2.45522,30.16833,29.2,100,1012.6,0,327.6,1
CELESTUN,25/02/19,20.85805556,-90.38305556,YC02,31.8,23,30.42923,24.07153,-1.37077,1.07153,26.34454,26.2,100,1017.8,0,251.4,0
CELESTUN,25/04/19,20.85805556,-90.38305556,YC02,33.9,23.7,33.40857,25.17474,-0.49143,1.47474,28.90497,28.2,100,1009,0,326.3,0
CELESTUN,25/05/19,20.85805556,-90.38305556,YC02,33,23.8,32.53198,26.57355,-0.46802,2.77355,29.29376,28.4,100,1013.3,0,320.9,0
CELESTUN,26/03/19,20.85805556,-90.38305556,YC02,30,22.4,28.95953,23.69742,-1.04047,1.29742,25.96338,25.6,100,1017,0,318.5,0
CELESTUN,28/02/19,20.85805556,-90.38305556,YC02,31.8,20.2,31.15326,23.05652,-0.64674,2.85652,26.91251,25.3,100,1014.8,0,270.7,0
CELESTUN,28/05/19,20.85805556,-90.38305556,YC02,34.2,24.5,33.2114,26.62012,-0.9886,2.12012,29.46631,29.1,100,1010.2,0,292.8,0
CELESTUN,28/06/19,20.85805556,-90.38305556,YC02,32.5,29.2,30.87946,26.5451,-1.62054,-2.6549,28.31723,NA,NA,NA,NA,NA,1
CELESTUN,29/04/19,20.85805556,-90.38305556,YC02,34.9,24.6,33.31088,26.41406,-1.58912,1.81406,29.45657,28.6,100,1012,0,293.5,0
CELESTUN,31/03/19,20.85805556,-90.38305556,YC02,29.2,22,29.97925,23.46674,0.77925,1.46674,26.50763,NA,100,1013.3,0,331.1,1
CELESTUN,31/05/19,20.85805556,-90.38305556,YC02,33.2,25.7,31.20941,27.54388,-1.99059,1.84388,29.15784,29.1,100,1009.4,2,185.8,1
TIZIMIN,01/02/19,21.16138889,-87.98888889,YC01,22.7,18.2,31.88641,19.37256,9.18641,1.17256,24.77295,23.2,NA,NA,0,NA,0
TIZIMIN,03/06/19,21.16138889,-87.98888889,YC01,36.6,24.2,34.88254,25.78992,-1.71746,1.58992,29.67166,NA,NA,NA,NA,NA,0
TIZIMIN,01/03/19,21.16138889,-87.98888889,YC01,33.5,18.8,33.36957,20.71606,-0.13043,1.91606,26.45227,25.1,83,1013.7,0,206.3,0
TIZIMIN,06/06/19,21.16138889,-87.98888889,YC01,38.3,23.5,38.76929,24.36807,0.46929,0.86807,30.99091,NA,NA,NA,NA,NA,0
TIZIMIN,01/04/19,21.16138889,-87.98888889,YC01,34.2,19.9,35.20798,21.75726,1.00798,1.85726,27.79843,26.7,74,1012.4,0,208.1,1
TIZIMIN,06/07/19,21.16138889,-87.98888889,YC01,34.7,22.4,34.12354,24.40735,-0.57646,2.00735,28.71808,27.8,83,1014.1,0,218.4,0
TIZIMIN,06/07/19,21.16138889,-87.98888889,YC01,34.7,22.4,34.12354,24.40735,-0.57646,2.00735,28.71808,27.8,83,1014.1,0,218.4,0
TIZIMIN,01/06/19,21.16138889,-87.98888889,YC01,35.2,24.3,34.14801,25.36652,-1.05199,1.06652,28.90088,NA,NA,NA,NA,NA,1
TIZIMIN,08/03/19,21.16138889,-87.98888889,YC01,32.9,16.8,33.37976,19.38977,0.47976,2.58977,25.72949,24.6,74,1015.1,0,276.1,0
TIZIMIN,01/07/19,21.16138889,-87.98888889,YC01,33.7,22.3,31.66684,24.77487,-2.03316,2.47487,27.54575,27,85,1014.4,0,253.2,1
TIZIMIN,01/07/19,21.16138889,-87.98888889,YC01,33.7,22.3,31.66684,24.77487,-2.03316,2.47487,27.54575,27,85,1014.4,0,253.2,1
TIZIMIN,08/05/19,21.16138889,-87.98888889,YC01,36.4,22.3,36.41006,23.45758,0.01006,1.15758,29.58176,28.6,72,1009.1,0,303.4,0
TIZIMIN,02/03/19,21.16138889,-87.98888889,YC01,34.1,19.2,33.93277,21.44928,-0.16723,2.24928,27.14258,25.8,78,1014,0,266,1
TIZIMIN,11/02/19,21.16138889,-87.98888889,YC01,31.7,18.3,31.95325,20.66943,0.25325,2.36943,25.74289,25,84,1013.3,0,224,0
TIZIMIN,03/03/19,21.16138889,-87.98888889,YC01,33.7,18.3,34.12354,20.84995,0.42354,2.54995,26.92786,25.8,79,1012,0,260.2,1
TIZIMIN,03/04/19,21.16138889,-87.98888889,YC01,34.6,20.4,35.50467,22.54382,0.90467,2.14382,28.68393,27.3,73,1015.9,0,243.8,1
TIZIMIN,11/03/19,21.16138889,-87.98888889,YC01,34.1,20.2,34.64676,22.22803,0.54676,2.02803,27.85452,26.7,78,1015,0,278.6,0
TIZIMIN,13/04/19,21.16138889,-87.98888889,YC01,34.2,23.8,35.93005,25.27319,1.73005,1.47319,29.71661,28.2,79,1005.9,0,244.6,0
TIZIMIN,03/07/19,21.16138889,-87.98888889,YC01,36.2,21.8,34.98929,23.43408,-1.21071,1.63408,28.75348,27.7,85,1012.5,0,269.9,0
TIZIMIN,03/07/19,21.16138889,-87.98888889,YC01,36.2,21.8,34.98929,23.43408,-1.21071,1.63408,28.75348,27.7,85,1012.5,0,269.9,0
TIZIMIN,16/07/19,21.16138889,-87.98888889,YC01,35.1,23.2,32.70435,25.28052,-2.39565,2.08052,28.74155,27.4,87,1013.4,0,204.7,0
TIZIMIN,16/07/19,21.16138889,-87.98888889,YC01,35.1,23.2,32.70435,25.28052,-2.39565,2.08052,28.74155,27.4,87,1013.4,0,204.7,0
TIZIMIN,04/03/19,21.16138889,-87.98888889,YC01,34.8,20.2,34.82867,20.5914,0.02867,0.3914,27.21478,26.5,78,1010.9,0,236.6,0
TIZIMIN,18/05/19,21.16138889,-87.98888889,YC01,36.3,23.1,36.12189,25.17883,-0.17811,2.07883,29.76596,28.3,79,1008.2,0,265.1,1
TIZIMIN,04/04/19,21.16138889,-87.98888889,YC01,35.2,19.9,35.9502,21.93295,0.7502,2.03295,28.50641,27.3,72,1015.6,0,289.7,0
TIZIMIN,19/02/19,21.16138889,-87.98888889,YC01,32.5,22.1,33.09689,22.6843,0.59689,0.5843,27.43402,26.4,87,1012.7,0,227.6,1
TIZIMIN,04/06/19,21.16138889,-87.98888889,YC01,37.3,23.3,37.42252,24.86578,0.12252,1.56578,30.6637,NA,NA,NA,NA,NA,0
TIZIMIN,21/02/19,21.16138889,-87.98888889,YC01,32.2,20.1,31.48233,22.18982,-0.71767,2.08982,26.6109,25.4,86,1010.7,0,197.5,0
TIZIMIN,05/03/19,21.16138889,-87.98888889,YC01,35.2,17.3,34.85828,21.3179,-0.34172,4.0179,27.47717,25.5,82,1013.6,0,244.7,0
TIZIMIN,21/06/19,21.16138889,-87.98888889,YC01,36.9,24.2,37.21088,25.88855,0.31088,1.68855,31.03735,NA,NA,NA,NA,NA,0
TIZIMIN,23/06/19,21.16138889,-87.98888889,YC01,38.1,24.4,37.3501,26.28922,-0.7499,1.88922,31.32208,NA,NA,NA,NA,NA,0
TIZIMIN,05/04/19,21.16138889,-87.98888889,YC01,35.3,20.1,35.72208,22.07135,0.42208,1.97135,28.54724,27.3,72,1012.7,0,296.5,1
TIZIMIN,24/02/19,21.16138889,-87.98888889,YC01,33.1,20.1,33.80432,21.47641,0.70432,1.37641,26.99377,25.4,89,1013.6,0,199.2,0
TIZIMIN,05/06/19,21.16138889,-87.98888889,YC01,37.5,23.3,37.27414,24.94946,-0.22586,1.64946,30.7774,NA,NA,NA,NA,NA,0
TIZIMIN,24/04/19,21.16138889,-87.98888889,YC01,35.2,20.6,36.11261,23.13531,0.91261,2.53531,29.02039,27.4,73,1010.4,0,277.2,1
TIZIMIN,05/07/19,21.16138889,-87.98888889,YC01,34.7,23.2,32.79349,25.14825,-1.90651,1.94825,28.51425,27.6,85,1012.9,0,220.4,0
TIZIMIN,05/07/19,21.16138889,-87.98888889,YC01,34.7,23.2,32.79349,25.14825,-1.90651,1.94825,28.51425,27.6,85,1012.9,0,220.4,0
TIZIMIN,25/03/19,21.16138889,-87.98888889,YC01,34.2,17.9,33.69702,20.80475,-0.50298,2.90475,26.30801,25,82,1013.6,0,247.5,0
TIZIMIN,06/03/19,21.16138889,-87.98888889,YC01,26.9,22.7,29.75339,22.54193,2.85339,-0.15807,25.39902,24.8,92,1018.5,0,133,1
TIZIMIN,26/02/19,21.16138889,-87.98888889,YC01,33.4,18.1,33.72574,20.63965,0.32574,2.53965,26.52557,25.3,78,1016.8,0,260.9,0
TIZIMIN,06/04/19,21.16138889,-87.98888889,YC01,35.2,21,35.43134,23.06439,0.23134,2.06439,28.76175,27.7,73,1012.1,0,269,0
TIZIMIN,26/04/19,21.16138889,-87.98888889,YC01,36,22,37.70364,24.67682,1.70364,2.67682,30.20709,28.2,76,1010,0,224.4,1
TIZIMIN,07/02/19,21.16138889,-87.98888889,YC01,30.7,18.4,31.86725,20.45865,1.16725,2.05865,25.52637,23.8,85,1013.4,0,228.2,0
TIZIMIN,26/05/19,21.16138889,-87.98888889,YC01,34.1,21.9,35.58881,23.94498,1.48881,2.04498,29.61896,27.6,80,1011.9,0,253.4,1
TIZIMIN,07/03/19,21.16138889,-87.98888889,YC01,32.7,16.6,32.24341,18.90424,-0.45659,2.30424,24.76724,21.5,83,1018.6,0,131.8,1
TIZIMIN,27/02/19,21.16138889,-87.98888889,YC01,34.4,18.9,33.70035,20.74005,-0.69965,1.84005,26.47885,25.5,76,1015.6,0,273.1,1
TIZIMIN,07/06/19,21.16138889,-87.98888889,YC01,38.1,23.8,38.49274,24.72266,0.39274,0.92266,31.36194,NA,NA,NA,NA,NA,0
TIZIMIN,27/04/19,21.16138889,-87.98888889,YC01,34.8,22.7,33.61591,24.53925,-1.18409,1.83925,28.5274,28.2,77,1010.6,0,205.8,0
TIZIMIN,27/05/19,21.16138889,-87.98888889,YC01,36,23.4,33.59888,25.28442,-2.40112,1.88442,29.2775,28.6,77,1010.9,0,236.5,0
TIZIMIN,07/07/19,21.16138889,-87.98888889,YC01,35.4,21.3,33.03406,23.95407,-2.36594,2.65407,28.32239,27,84,1013.9,0,255.2,1
TIZIMIN,07/07/19,21.16138889,-87.98888889,YC01,35.4,21.3,33.03406,23.95407,-2.36594,2.65407,28.32239,27,84,1013.9,0,255.2,1
TIZIMIN,30/05/19,21.16138889,-87.98888889,YC01,37.3,23.5,36.79529,26.2981,-0.50471,2.7981,31.35236,30,73,1006.9,0,257.1,0
TIZIMIN,08/04/19,21.16138889,-87.98888889,YC01,35.8,21.8,35.93359,24.66858,0.13359,2.86858,29.37305,28.1,73,1010.4,0,269,1
TIZIMIN,09/03/19,21.16138889,-87.98888889,YC01,34.4,17.1,34.4679,20.13058,0.0679,3.03058,26.48859,24.9,81,1011.7,0,254.7,0
TIZIMIN,31/01/19,21.16138889,-87.98888889,YC01,29.7,15.4,30.34912,17.31256,0.64912,1.91256,22.95093,21.2,87,1015.7,0,213.3,1
TIZIMIN,09/04/19,21.16138889,-87.98888889,YC01,29.9,21.9,30.92386,23.55545,1.02386,1.65545,26.10825,25.3,91,1010.1,0,119,1
TIZIMIN,09/07/19,21.16138889,-87.98888889,YC01,35.8,22.2,35.21338,24.78687,-0.58662,2.58687,29.30933,26.6,89,1013.2,0,256.2,0
TIZIMIN,09/07/19,21.16138889,-87.98888889,YC01,35.8,22.2,35.21338,24.78687,-0.58662,2.58687,29.30933,26.6,89,1013.2,0,256.2,0
TIZIMIN,10/03/19,21.16138889,-87.98888889,YC01,34.1,21.3,34.4884,22.56024,0.3884,1.26024,27.78278,26.9,80,1012.8,0,253.6,1
TIZIMIN,10/04/19,21.16138889,-87.98888889,YC01,33.6,15.5,34.20166,20.02277,0.60166,4.52277,25.75525,23.6,76,1009.6,0,332.5,1
TIZIMIN,10/05/19,21.16138889,-87.98888889,YC01,36.1,22.6,36.56738,25.04456,0.46738,2.44456,30.18842,29,73,1007.8,0,312.2,0
TIZIMIN,10/06/19,21.16138889,-87.98888889,YC01,37.7,24,38.24054,26.39362,0.54054,2.39362,31.79291,NA,NA,NA,NA,NA,1
TIZIMIN,10/07/19,21.16138889,-87.98888889,YC01,36.6,21.8,35.36874,23.14835,-1.23126,1.34835,28.36786,26.6,81,1012.6,0,272,0
TIZIMIN,10/07/19,21.16138889,-87.98888889,YC01,36.6,21.8,35.36874,23.14835,-1.23126,1.34835,28.36786,26.6,81,1012.6,0,272,0
TIZIMIN,11/04/19,21.16138889,-87.98888889,YC01,36.1,16.9,36.17456,19.44522,0.07456,2.54522,26.77704,25.4,67,1006.8,0,323.4,0
TIZIMIN,11/05/19,21.16138889,-87.98888889,YC01,36.6,23.3,37.26724,24.8215,0.66724,1.5215,30.39252,29.3,72,1008.4,0,311.6,0
TIZIMIN,11/06/19,21.16138889,-87.98888889,YC01,37.9,22.2,36.79507,25.37701,-1.10493,3.17701,30.65622,NA,NA,NA,NA,NA,1
TIZIMIN,12/02/19,21.16138889,-87.98888889,YC01,28.9,19.5,31.07632,20.93048,2.17632,1.43048,25.11078,23.2,98,1011.8,0,163.4,1
TIZIMIN,12/03/19,21.16138889,-87.98888889,YC01,34.2,21.1,34.6958,21.99164,0.4958,0.89164,27.81213,26.9,76,1014.9,0,254.4,1
TIZIMIN,12/04/19,21.16138889,-87.98888889,YC01,35.5,18.7,36.6218,21.45432,1.1218,2.75432,28.20596,26.8,71,1006.4,0,312.4,0
TIZIMIN,12/06/19,21.16138889,-87.98888889,YC01,35.3,21.7,35.68173,24.30048,0.38173,2.60048,28.91333,NA,NA,NA,NA,NA,0
TIZIMIN,13/02/19,21.16138889,-87.98888889,YC01,26.2,20.6,27.14084,22.16882,0.94084,1.56882,23.62762,22.2,99,1013.8,0,136.3,0
TIZIMIN,13/03/19,21.16138889,-87.98888889,YC01,33.5,20.7,34.32001,21.65021,0.82001,0.95021,27.50616,26.6,78,1011.7,0,260.5,0
TIZIMIN,13/06/19,21.16138889,-87.98888889,YC01,35.3,22.9,34.02692,24.58835,-1.27308,1.68835,28.36456,NA,NA,NA,NA,NA,1
TIZIMIN,14/03/19,21.16138889,-87.98888889,YC01,34.2,19.8,34.93481,21.35129,0.73481,1.55129,27.59421,26.5,74,1010.5,0,295.2,1
TIZIMIN,14/05/19,21.16138889,-87.98888889,YC01,37.1,33.4,38.16922,25.0943,1.06922,-8.3057,31.15823,NA,NA,NA,0,NA,0
TIZIMIN,14/07/19,21.16138889,-87.98888889,YC01,35.9,23.2,33.98749,24.84341,-1.91251,1.64341,29.04541,28.8,76,1012.2,0,308.6,0
TIZIMIN,14/07/19,21.16138889,-87.98888889,YC01,35.9,23.2,33.98749,24.84341,-1.91251,1.64341,29.04541,28.8,76,1012.2,0,308.6,0
TIZIMIN,15/05/19,21.16138889,-87.98888889,YC01,37.3,23.6,37.56268,25.19244,0.26268,1.59244,30.92398,29.8,74,1009,0,255.3,0
TIZIMIN,15/06/19,21.16138889,-87.98888889,YC01,35.1,24.6,33.10181,25.34033,-1.99819,0.74033,28.50589,NA,NA,NA,NA,NA,0
TIZIMIN,15/07/19,21.16138889,-87.98888889,YC01,35.3,23.3,34.35428,25.03439,-0.94572,1.73439,29.35815,28.7,77,1012.3,0,249.3,0
TIZIMIN,15/07/19,21.16138889,-87.98888889,YC01,35.3,23.3,34.35428,25.03439,-0.94572,1.73439,29.35815,28.7,77,1012.3,0,249.3,0
TIZIMIN,16/03/19,21.16138889,-87.98888889,YC01,34.3,18.8,35.54504,21.10187,1.24504,2.30187,28.13345,26.5,75,1014.3,0,251.5,0
TIZIMIN,16/04/19,21.16138889,-87.98888889,YC01,35,23,36.02402,23.05685,1.02402,0.05685,28.40085,27.8,81,1014.2,0,256.7,1
TIZIMIN,16/05/19,21.16138889,-87.98888889,YC01,37.1,23.7,33.65378,26.01825,-3.44622,2.31825,29.72824,29.4,75,1009.8,0,250.1,1
TIZIMIN,16/06/19,21.16138889,-87.98888889,YC01,35.3,25.2,33.7858,25.16254,-1.5142,-0.03746,28.8299,NA,NA,NA,NA,NA,1
TIZIMIN,17/03/19,21.16138889,-87.98888889,YC01,35.1,18.6,35.44476,21.90759,0.34476,3.30759,28.27115,25.7,81,1013.9,0,256.7,1
TIZIMIN,17/04/19,21.16138889,-87.98888889,YC01,35.3,21.8,36.18506,23.39236,0.88506,1.59236,29.2341,27.8,75,1011.9,0,267.5,0
TIZIMIN,17/05/19,21.16138889,-87.98888889,YC01,36.3,23.2,35.51138,25.40332,-0.78862,2.20332,29.73395,27.9,81,1009.4,0,217.1,1
TIZIMIN,17/07/19,21.16138889,-87.98888889,YC01,35.9,22.2,33.31781,24.45425,-2.58219,2.25425,28.31244,28.1,85,1014.1,0,267.8,1
TIZIMIN,17/07/19,21.16138889,-87.98888889,YC01,35.9,22.2,33.31781,24.45425,-2.58219,2.25425,28.31244,28.1,85,1014.1,0,267.8,1
TIZIMIN,18/02/19,21.16138889,-87.98888889,YC01,32.7,21.6,34.30176,22.72559,1.60176,1.12559,27.41959,26.3,90,1009.8,0,198.7,0
TIZIMIN,18/03/19,21.16138889,-87.98888889,YC01,32.5,21.8,34.23434,22.48389,1.73434,0.68389,27.84888,26.1,82,1012.4,0,140.9,0
TIZIMIN,18/06/19,21.16138889,-87.98888889,YC01,36.5,24.3,36.69116,25.39746,0.19116,1.09746,30.30243,NA,NA,NA,NA,NA,0
TIZIMIN,19/03/19,21.16138889,-87.98888889,YC01,28.3,21.8,30.0379,21.76956,1.7379,-0.03044,25.12219,24,96,1011.9,0,168,0
TIZIMIN,19/05/19,21.16138889,-87.98888889,YC01,36,23.2,36.0372,25.44992,0.0372,2.24992,30.29547,29.2,72,1008.4,0,297,0
TIZIMIN,19/07/19,21.16138889,-87.98888889,YC01,36.4,19.7,35.7009,23.28217,-0.6991,3.58217,29.24033,27.4,54,1012.9,0,270.5,0
TIZIMIN,19/07/19,21.16138889,-87.98888889,YC01,36.4,19.7,35.7009,23.28217,-0.6991,3.58217,29.24033,27.4,54,1012.9,0,270.5,0
TIZIMIN,20/02/19,21.16138889,-87.98888889,YC01,32.1,21.7,32.94531,21.9361,0.84531,0.2361,26.89047,26.1,86,1010.5,0,225.3,0
TIZIMIN,20/05/19,21.16138889,-87.98888889,YC01,36.2,21.9,36.25055,25.12543,0.05055,3.22543,30.25571,28.8,73,1009.7,0,281.4,0
TIZIMIN,20/07/19,21.16138889,-87.98888889,YC01,37.1,22.8,34.68842,25.01263,-2.41158,2.21263,28.9718,29,49,1012.2,0,265.2,0
TIZIMIN,20/07/19,21.16138889,-87.98888889,YC01,37.1,22.8,34.68842,25.01263,-2.41158,2.21263,28.9718,29,49,1012.2,0,265.2,0
TIZIMIN,21/03/19,21.16138889,-87.98888889,YC01,29.6,16.1,30.19989,19.11432,0.59989,3.01432,24.30032,22.6,82,1015.2,0,278.6,1
TIZIMIN,21/04/19,21.16138889,-87.98888889,YC01,33.9,11.7,34.21329,17.60519,0.31329,5.90519,24.89319,22.2,67,1015.4,0,320.2,1
TIZIMIN,21/07/19,21.16138889,-87.98888889,YC01,32.3,22.8,33.76971,24.07819,1.46971,1.27819,28.56342,27.2,63,1012.3,0,143.4,0
TIZIMIN,21/07/19,21.16138889,-87.98888889,YC01,32.3,22.8,33.76971,24.07819,1.46971,1.27819,28.56342,27.2,63,1012.3,0,143.4,0
TIZIMIN,22/02/19,21.16138889,-87.98888889,YC01,32.2,22.5,33.27283,22.20752,1.07283,-0.29248,26.8074,26.3,86,1012,0,220.2,1
TIZIMIN,22/03/19,21.16138889,-87.98888889,YC01,29.5,14,30.34698,17.98407,0.84698,3.98407,23.54553,21.6,77,1016,0,305.7,1
TIZIMIN,22/04/19,21.16138889,-87.98888889,YC01,35,16.3,35.15744,19.92447,0.15744,3.62447,27.22357,25.3,66,1014.3,0,328.4,0
TIZIMIN,22/06/19,21.16138889,-87.98888889,YC01,37.1,25.1,36.92017,26.03561,-0.17983,0.93561,31.0517,NA,NA,NA,NA,NA,0
TIZIMIN,23/02/19,21.16138889,-87.98888889,YC01,32.7,18.8,32.80777,21.01227,0.10777,2.21227,26.63034,25.4,82,1012.9,0,240.8,1
TIZIMIN,23/03/19,21.16138889,-87.98888889,YC01,29.6,14.2,30.75244,17.29462,1.15244,3.09462,23.49756,21.7,72,1016.2,0,284.5,0
TIZIMIN,23/04/19,21.16138889,-87.98888889,YC01,35.4,16.8,35.76813,21.07031,0.36813,4.27031,28.08682,26,65,1012.4,0,304.5,0
TIZIMIN,23/05/19,21.16138889,-87.98888889,YC01,36.6,33.1,36.6438,25.20575,0.0438,-7.89425,30.44824,NA,NA,NA,0,NA,1
TIZIMIN,24/05/19,21.16138889,-87.98888889,YC01,36.9,22.6,37.24033,25.50323,0.34033,2.90323,30.65997,29.4,71,1011.3,0,317.5,0
TIZIMIN,25/02/19,21.16138889,-87.98888889,YC01,33.3,19.8,33.52921,21.90009,0.22921,2.10009,27.03723,25.5,86,1016.1,0,238.9,1
TIZIMIN,25/04/19,21.16138889,-87.98888889,YC01,35.8,21.2,37.3111,23.8006,1.5111,2.6006,29.51764,28.1,69,1008.6,0,321.3,1
TIZIMIN,25/05/19,21.16138889,-87.98888889,YC01,34.3,21.5,35.75092,24.49756,1.45092,2.99756,29.81073,28.2,76,1011.6,0,264.2,1
TIZIMIN,26/03/19,21.16138889,-87.98888889,YC01,32,18.7,32.13892,22.20105,0.13892,3.50105,26.60931,25.5,79,1014.4,0,293.3,0
TIZIMIN,27/07/19,21.16138889,-87.98888889,YC01,33.7,23.7,32.10336,24.99265,-1.59664,1.29265,28.16742,26.2,NA,1016.3,0,164.4,0
TIZIMIN,27/07/19,21.16138889,-87.98888889,YC01,33.7,23.7,32.10336,24.99265,-1.59664,1.29265,28.16742,26.2,NA,1016.3,0,164.4,0
TIZIMIN,28/02/19,21.16138889,-87.98888889,YC01,33.6,18.3,33.43924,20.72784,-0.16076,2.42784,26.42963,25.5,78,1013.8,0,260.6,0
TIZIMIN,28/05/19,21.16138889,-87.98888889,YC01,37,22.7,36.78961,24.63187,-0.21039,1.93187,30.20996,29,72,1008.8,0,306.9,1
TIZIMIN,28/06/19,21.16138889,-87.98888889,YC01,32.4,21.5,32.72693,24.93781,0.32693,3.43781,28.24677,NA,NA,NA,NA,NA,0
TIZIMIN,28/07/19,21.16138889,-87.98888889,YC01,35.7,22.5,33.00989,24.96576,-2.69011,2.46576,28.37173,27.2,NA,1015.9,0,260.1,0
TIZIMIN,28/07/19,21.16138889,-87.98888889,YC01,35.7,22.5,33.00989,24.96576,-2.69011,2.46576,28.37173,27.2,NA,1015.9,0,260.1,0
TIZIMIN,29/04/19,21.16138889,-87.98888889,YC01,35.2,22.3,36.24661,24.00238,1.04661,1.70238,29.66495,28,76,1011.4,0,246.9,0
TIZIMIN,29/07/19,21.16138889,-87.98888889,YC01,34.4,22.2,33.02322,24.85114,-1.37678,2.65114,28.48941,27,NA,1013.9,0,241.3,0
TIZIMIN,29/07/19,21.16138889,-87.98888889,YC01,34.4,22.2,33.02322,24.85114,-1.37678,2.65114,28.48941,27,NA,1013.9,0,241.3,0
TIZIMIN,30/07/19,21.16138889,-87.98888889,YC01,35.2,21.8,34.59888,24.383,-0.60112,2.583,28.92923,28,NA,1012.6,0,299.4,1
TIZIMIN,30/07/19,21.16138889,-87.98888889,YC01,35.2,21.8,34.59888,24.383,-0.60112,2.583,28.92923,28,NA,1012.6,0,299.4,1
TIZIMIN,31/03/19,21.16138889,-87.98888889,YC01,29.1,17.8,34.51947,20.62317,5.41947,2.82317,26.93121,NA,NA,NA,0,NA,0
TIZIMIN,31/05/19,21.16138889,-87.98888889,YC01,33.8,24.2,34.1004,26.91968,0.3004,2.71968,30.16183,28.8,82,1007.9,0,255.9,1
TIZIMIN,31/07/19,21.16138889,-87.98888889,YC01,34,23.9,34.51422,25.02634,0.51422,1.12634,29.17346,28,NA,1012,0,218.6,0
TIZIMIN,31/07/19,21.16138889,-87.98888889,YC01,34,23.9,34.51422,25.02634,0.51422,1.12634,29.17346,28,NA,1012,0,218.6,0
VALLADOLID,03/06/19,20.69277778,-88.21583333,YC08,35.8,25.2,33.59207,25.03699,-2.20793,-0.16301,28.66479,NA,NA,NA,NA,NA,0
VALLADOLID,06/06/19,20.69277778,-88.21583333,YC08,37.2,24.5,37.82779,23.46967,0.62779,-1.03033,30.02725,NA,NA,NA,NA,NA,0
VALLADOLID,01/04/19,20.69277778,-88.21583333,YC08,36.3,21.3,36.18451,21.13779,-0.11549,-0.16221,27.98444,28,62,NA,0,268,1
VALLADOLID,06/07/19,20.69277778,-88.21583333,YC08,35,25.2,35.14908,23.8439,0.14908,-1.3561,28.72302,NA,NA,NA,NA,NA,0
VALLADOLID,06/07/19,20.69277778,-88.21583333,YC08,35,25.2,35.14908,23.8439,0.14908,-1.3561,28.72302,NA,NA,NA,NA,NA,0
VALLADOLID,01/06/19,20.69277778,-88.21583333,YC08,32.2,24.8,32.78607,25.11066,0.58607,0.31066,28,NA,NA,NA,NA,NA,0
VALLADOLID,01/07/19,20.69277778,-88.21583333,YC08,35.6,23.7,33.17053,24.33286,-2.42947,0.63286,27.72632,28.8,70,1013.5,0,210.2,0
VALLADOLID,01/07/19,20.69277778,-88.21583333,YC08,35.6,23.7,33.17053,24.33286,-2.42947,0.63286,27.72632,28.8,70,1013.5,0,210.2,0
VALLADOLID,08/05/19,20.69277778,-88.21583333,YC08,35.9,23.3,36.10406,22.45126,0.20406,-0.84874,28.93765,29.1,68,1008.5,0,285.8,0
VALLADOLID,03/04/19,20.69277778,-88.21583333,YC08,35,22.4,36.3721,22.43506,1.3721,0.03506,28.88492,28.6,63,NA,0,260.6,1
VALLADOLID,13/04/19,20.69277778,-88.21583333,YC08,33.6,25.2,35.71985,25.43573,2.11985,0.23573,29.58066,28.7,70,NA,0,201.9,0
VALLADOLID,03/07/19,20.69277778,-88.21583333,YC08,38,25.3,36.0415,23.13077,-1.9585,-2.16923,29.19885,30.7,68,NA,0,213.6,0
VALLADOLID,03/07/19,20.69277778,-88.21583333,YC08,38,25.3,36.0415,23.13077,-1.9585,-2.16923,29.19885,30.7,68,NA,0,213.6,0
VALLADOLID,16/07/19,20.69277778,-88.21583333,YC08,35.2,25,32.63138,24.70993,-2.56862,-0.29007,28.39871,29,73,NA,0,172.3,0
VALLADOLID,16/07/19,20.69277778,-88.21583333,YC08,35.2,25,32.63138,24.70993,-2.56862,-0.29007,28.39871,29,73,NA,0,172.3,0
VALLADOLID,18/05/19,20.69277778,-88.21583333,YC08,37.2,24.6,35.54269,24.42786,-1.65731,-0.17214,28.85275,29.4,71,1007.4,0.2,251.7,1
VALLADOLID,04/04/19,20.69277778,-88.21583333,YC08,35,21.4,36.46005,21.28043,1.46005,-0.11957,28.46304,27.4,69,NA,0,272,0
VALLADOLID,04/06/19,20.69277778,-88.21583333,YC08,36.8,26.3,36.08423,24.47321,-0.71577,-1.82679,29.7197,NA,NA,NA,NA,NA,0
VALLADOLID,21/06/19,20.69277778,-88.21583333,YC08,38.2,24.9,37.40332,25.72308,-0.79668,0.82308,31.01895,NA,NA,NA,NA,NA,0
VALLADOLID,23/06/19,20.69277778,-88.21583333,YC08,38.3,26.4,37.65491,26.13504,-0.64509,-0.26496,31.35089,NA,NA,NA,NA,NA,0
VALLADOLID,05/06/19,20.69277778,-88.21583333,YC08,36.6,27.3,36.11481,23.78589,-0.48519,-3.51411,29.68268,NA,NA,NA,NA,NA,1
VALLADOLID,24/04/19,20.69277778,-88.21583333,YC08,31.8,22.7,36.12512,23.66434,4.32512,0.96434,29.06296,27.8,70,1007.1,0,228,1
VALLADOLID,05/07/19,20.69277778,-88.21583333,YC08,36.6,27.2,33.12961,24.81085,-3.47039,-2.38915,28.57751,NA,NA,NA,NA,NA,1
VALLADOLID,05/07/19,20.69277778,-88.21583333,YC08,36.6,27.2,33.12961,24.81085,-3.47039,-2.38915,28.57751,NA,NA,NA,NA,NA,1
VALLADOLID,25/03/19,20.69277778,-88.21583333,YC08,37.1,20.1,35.22284,19.99548,-1.87716,-0.10452,26.87064,26.9,69,NA,0,261.2,0
VALLADOLID,06/04/19,20.69277778,-88.21583333,YC08,35,31,35.75024,22.75745,0.75024,-8.24255,28.76315,NA,NA,NA,NA,NA,1
VALLADOLID,26/04/19,20.69277778,-88.21583333,YC08,37.1,23.4,38.42072,24.63773,1.32072,1.23773,30.38586,29.4,68,1009.3,0,198.1,1
VALLADOLID,26/05/19,20.69277778,-88.21583333,YC08,36.4,22.7,36.3371,23.16254,-0.0629,0.46254,29.60681,29.1,68,1011.1,0,276.2,1
VALLADOLID,07/06/19,20.69277778,-88.21583333,YC08,38,24.4,37.57861,23.79599,-0.42139,-0.60401,30.40683,NA,NA,NA,NA,NA,0
VALLADOLID,27/04/19,20.69277778,-88.21583333,YC08,34.4,23.1,32.98352,24.60892,-1.41648,1.50892,28.40149,27.6,74,1010.2,8.2,207.3,0
VALLADOLID,27/05/19,20.69277778,-88.21583333,YC08,37.1,24,33.70059,24.2345,-3.39941,0.2345,28.51031,30.1,65,1010,0,257.4,0
VALLADOLID,07/07/19,20.69277778,-88.21583333,YC08,36.1,25.8,33.80746,23.31491,-2.29254,-2.48509,28.31091,NA,NA,NA,NA,NA,1
VALLADOLID,07/07/19,20.69277778,-88.21583333,YC08,36.1,25.8,33.80746,23.31491,-2.29254,-2.48509,28.31091,NA,NA,NA,NA,NA,1
VALLADOLID,30/05/19,20.69277778,-88.21583333,YC08,39,25,36.75415,25.61545,-2.24585,0.61545,30.96942,31.1,65,1006.1,0,252.6,0
VALLADOLID,08/04/19,20.69277778,-88.21583333,YC08,36.5,22.7,36.84418,24.87601,0.34418,2.17601,29.66385,28.7,67,NA,0,262,1
VALLADOLID,09/04/19,20.69277778,-88.21583333,YC08,32.2,24.2,31.5209,23.47543,-0.6791,-0.72457,26.37476,27.7,71,NA,0,171.8,1
VALLADOLID,09/07/19,20.69277778,-88.21583333,YC08,35.3,23.7,35.70447,24.40555,0.40447,0.70555,29.1423,26.8,85,NA,7.2,180.2,0
VALLADOLID,09/07/19,20.69277778,-88.21583333,YC08,35.3,23.7,35.70447,24.40555,0.40447,0.70555,29.1423,26.8,85,NA,7.2,180.2,0
VALLADOLID,10/04/19,20.69277778,-88.21583333,YC08,37.7,16.8,36.05948,18.5787,-1.64052,1.7787,26.23932,25.8,62,NA,0,323.6,1
VALLADOLID,10/05/19,20.69277778,-88.21583333,YC08,36.3,23.9,35.92508,24.89215,-0.37492,0.99215,29.63168,29.4,67,1007.1,0,291,0
VALLADOLID,10/06/19,20.69277778,-88.21583333,YC08,39.5,25.3,38.17236,25.56357,-1.32764,0.26357,31.36707,NA,NA,NA,NA,NA,1
VALLADOLID,10/07/19,20.69277778,-88.21583333,YC08,36.1,23.2,35.59357,23.18973,-0.50643,-0.01027,28.37823,NA,NA,NA,NA,NA,0
VALLADOLID,10/07/19,20.69277778,-88.21583333,YC08,36.1,23.2,35.59357,23.18973,-0.50643,-0.01027,28.37823,NA,NA,NA,NA,NA,0
VALLADOLID,11/04/19,20.69277778,-88.21583333,YC08,36.9,20,36.70331,20.33456,-0.19669,0.33456,27.41974,27.5,57,NA,0,320.4,0
VALLADOLID,11/05/19,20.69277778,-88.21583333,YC08,37.7,23.7,36.97028,24.61304,-0.72972,0.91304,29.91431,29.8,66,1007.8,0,311.2,0
VALLADOLID,11/06/19,20.69277778,-88.21583333,YC08,37,24.8,36.9585,24.70004,-0.0415,-0.09996,30.26489,NA,NA,NA,NA,NA,1
VALLADOLID,12/04/19,20.69277778,-88.21583333,YC08,35.5,20.7,36.89645,21.30933,1.39645,0.60933,28.1658,27.7,66,NA,0,295.7,0
VALLADOLID,12/06/19,20.69277778,-88.21583333,YC08,38.1,23.4,36.12476,23.80106,-1.97524,0.40106,28.81934,NA,NA,NA,NA,NA,0
VALLADOLID,13/06/19,20.69277778,-88.21583333,YC08,35.6,24.3,33.84891,24.33841,-1.75109,0.03841,28.32938,NA,NA,NA,NA,NA,1
VALLADOLID,14/05/19,20.69277778,-88.21583333,YC08,37.2,33.8,37.96902,24.33267,0.76902,-9.46733,30.67047,30.4,69,1008.1,0,260.6,0
VALLADOLID,14/07/19,20.69277778,-88.21583333,YC08,37.2,24.5,34.18652,24.36533,-3.01348,-0.13467,28.83316,30.3,66,NA,0,284.5,0
VALLADOLID,14/07/19,20.69277778,-88.21583333,YC08,37.2,24.5,34.18652,24.36533,-3.01348,-0.13467,28.83316,30.3,66,NA,0,284.5,0
VALLADOLID,15/05/19,20.69277778,-88.21583333,YC08,37.1,24.7,36.95813,24.62122,-0.14187,-0.07878,30.32626,30.3,69,1008.3,0,241.5,0
VALLADOLID,15/06/19,20.69277778,-88.21583333,YC08,36.5,25,33.85602,24.36917,-2.64398,-0.63083,28.34387,NA,NA,NA,NA,NA,0
VALLADOLID,15/07/19,20.69277778,-88.21583333,YC08,37.6,24.9,34.45419,24.36151,-3.14581,-0.53849,28.97067,30.6,66,NA,0,236.3,0
VALLADOLID,15/07/19,20.69277778,-88.21583333,YC08,37.6,24.9,34.45419,24.36151,-3.14581,-0.53849,28.97067,30.6,66,NA,0,236.3,0
VALLADOLID,16/03/19,20.69277778,-88.21583333,YC08,35.6,31.8,36.24106,20.42395,0.64106,-11.37605,27.91171,28,65,NA,0,264.3,1
VALLADOLID,16/04/19,20.69277778,-88.21583333,YC08,36.4,23.9,36.86877,23.33023,0.46877,-0.56977,29.16797,29.1,69,NA,0,259.2,1
VALLADOLID,16/05/19,20.69277778,-88.21583333,YC08,38.7,25.7,33.53131,25.34216,-5.16869,-0.35784,29.2836,30.5,68,1009.1,0,235.6,1
VALLADOLID,16/06/19,20.69277778,-88.21583333,YC08,36.1,26.1,35.06348,24.6171,-1.03652,-1.4829,29.22214,NA,NA,NA,NA,NA,1
VALLADOLID,17/03/19,20.69277778,-88.21583333,YC08,36.8,21.1,36.21832,21.76202,-0.58168,0.66202,28.44791,27.6,66,NA,0,250.5,1
VALLADOLID,17/04/19,20.69277778,-88.21583333,YC08,35.3,22.9,36.28583,23.29416,0.98583,0.39416,29.14163,28.8,67,NA,0,288,0
VALLADOLID,17/05/19,20.69277778,-88.21583333,YC08,37.4,23.3,34.84207,24.76218,-2.55793,1.46218,29.01202,28.2,75,1008.6,1,244,1
VALLADOLID,17/07/19,20.69277778,-88.21583333,YC08,34.3,25.4,33.19125,23.93756,-1.10875,-1.46244,28.0531,27.8,80,NA,8.4,154.7,0
VALLADOLID,17/07/19,20.69277778,-88.21583333,YC08,34.3,25.4,33.19125,23.93756,-1.10875,-1.46244,28.0531,27.8,80,NA,8.4,154.7,0
VALLADOLID,18/03/19,20.69277778,-88.21583333,YC08,32.4,23.7,34.75696,21.85452,2.35696,-1.84548,27.99161,27.8,65,NA,0,159.5,0
VALLADOLID,18/06/19,20.69277778,-88.21583333,YC08,38,25.5,36.98785,25.54593,-1.01215,0.04593,30.40421,NA,NA,NA,NA,NA,0
VALLADOLID,19/03/19,20.69277778,-88.21583333,YC08,31.9,21.8,31.84421,21.09372,-0.05579,-0.70628,25.22888,25.3,79,NA,8.2,153.8,1
VALLADOLID,19/05/19,20.69277778,-88.21583333,YC08,35.9,24.7,35.42728,25.27975,-0.47272,0.57975,29.80896,30,66,1007.6,0,234.8,0
VALLADOLID,19/07/19,20.69277778,-88.21583333,YC08,37.1,23.3,36.35062,22.29984,-0.74938,-1.00016,29.0282,29.6,65,NA,0,192.9,0
VALLADOLID,19/07/19,20.69277778,-88.21583333,YC08,37.1,23.3,36.35062,22.29984,-0.74938,-1.00016,29.0282,29.6,65,NA,0,192.9,0
VALLADOLID,20/05/19,20.69277778,-88.21583333,YC08,36.7,23.9,36.32529,24.81451,-0.37471,0.91451,29.85889,29.9,66,1009,0,284.2,0
VALLADOLID,20/07/19,20.69277778,-88.21583333,YC08,37.7,24.9,34.85733,24.14069,-2.84267,-0.75931,28.68539,30.4,65,NA,0,257.7,0
VALLADOLID,20/07/19,20.69277778,-88.21583333,YC08,37.7,24.9,34.85733,24.14069,-2.84267,-0.75931,28.68539,30.4,65,NA,0,257.7,0
VALLADOLID,21/03/19,20.69277778,-88.21583333,YC08,33.4,17.4,32.2601,18.51343,-1.1399,1.11343,24.99869,25,65,NA,0,279.1,1
VALLADOLID,21/04/19,20.69277778,-88.21583333,YC08,36.2,15.6,35.4166,17.13956,-0.7834,1.53956,25.63983,25.1,51,NA,0,326,1
VALLADOLID,21/07/19,20.69277778,-88.21583333,YC08,34.5,24.2,33.39539,23.57971,-1.10461,-0.62029,28.18652,28.8,72,NA,0,151.3,1
VALLADOLID,21/07/19,20.69277778,-88.21583333,YC08,34.5,24.2,33.39539,23.57971,-1.10461,-0.62029,28.18652,28.8,72,NA,0,151.3,1
VALLADOLID,22/03/19,20.69277778,-88.21583333,YC08,33.5,15.4,32.37289,16.49057,-1.12711,1.09057,24.1037,24,61,NA,0,307.5,1
VALLADOLID,22/04/19,20.69277778,-88.21583333,YC08,37.4,19,36.45728,19.77225,-0.94272,0.77225,27.81824,27.5,54,NA,0,328.5,0
VALLADOLID,22/06/19,20.69277778,-88.21583333,YC08,37.6,26.2,36.95889,25.83545,-0.64111,-0.36455,30.94562,NA,NA,NA,NA,NA,0
VALLADOLID,23/03/19,20.69277778,-88.21583333,YC08,33.7,17.2,32.83081,16.55069,-0.86919,-0.64931,24.35947,24.8,54,NA,0,288.3,1
VALLADOLID,23/04/19,20.69277778,-88.21583333,YC08,36,19.4,36.72443,21.15109,0.72443,1.75109,28.68027,27.6,59,NA,0,269.1,0
VALLADOLID,23/05/19,20.69277778,-88.21583333,YC08,38.1,24.6,37.41364,25.11404,-0.68636,0.51404,30.5173,30.6,64,1010.3,0,272.6,0
VALLADOLID,24/05/19,20.69277778,-88.21583333,YC08,38.4,24,37.78574,25.34927,-0.61426,1.34927,30.77466,30.5,62,1010.4,0,268.7,0
VALLADOLID,25/05/19,20.69277778,-88.21583333,YC08,34,23.2,36.77078,23.59692,2.77078,0.39692,29.66083,28.9,68,1010.8,0,180.6,1
VALLADOLID,26/03/19,20.69277778,-88.21583333,YC08,35.6,21,34.72559,21.66043,-0.87441,0.66043,27.70804,27.7,64,NA,0,260.8,1
VALLADOLID,27/07/19,20.69277778,-88.21583333,YC08,34.3,24.5,32.82669,24.27417,-1.47331,-0.22583,28.20773,27.8,78,NA,1.4,190.7,0
VALLADOLID,27/07/19,20.69277778,-88.21583333,YC08,34.3,24.5,32.82669,24.27417,-1.47331,-0.22583,28.20773,27.8,78,NA,1.4,190.7,0
VALLADOLID,28/05/19,20.69277778,-88.21583333,YC08,38.2,24.4,37.20883,24.35861,-0.99117,-0.04139,29.86914,30.2,65,1008,0,273.3,1
VALLADOLID,28/06/19,20.69277778,-88.21583333,YC08,34.7,22.6,33.61673,24.51599,-1.08327,1.91599,28.51971,NA,NA,NA,NA,NA,0
VALLADOLID,28/07/19,20.69277778,-88.21583333,YC08,37.6,26.8,33.83554,24.26437,-3.76446,-2.53563,28.46893,28.7,76,NA,0.4,235,0
VALLADOLID,28/07/19,20.69277778,-88.21583333,YC08,37.6,26.8,33.83554,24.26437,-3.76446,-2.53563,28.46893,28.7,76,NA,0.4,235,0
VALLADOLID,29/04/19,20.69277778,-88.21583333,YC08,35.6,23.7,36.51425,23.53549,0.91425,-0.16451,29.64108,29,68,1010.6,0,265.4,0
VALLADOLID,29/07/19,20.69277778,-88.21583333,YC08,37.9,22.5,34.13312,24.33514,-3.76688,1.83514,28.78452,28.3,71,NA,0,273.4,1
VALLADOLID,29/07/19,20.69277778,-88.21583333,YC08,37.9,22.5,34.13312,24.33514,-3.76688,1.83514,28.78452,28.3,71,NA,0,273.4,1
VALLADOLID,30/07/19,20.69277778,-88.21583333,YC08,37.9,23.1,35.8252,23.7962,-2.0748,0.6962,29.27747,28.7,75,NA,2.2,267.7,1
VALLADOLID,30/07/19,20.69277778,-88.21583333,YC08,37.9,23.1,35.8252,23.7962,-2.0748,0.6962,29.27747,28.7,75,NA,2.2,267.7,1
VALLADOLID,31/03/19,20.69277778,-88.21583333,YC08,30.5,19.9,35.67358,20.41791,5.17358,0.51791,27.41467,NA,NA,NA,NA,NA,0
VALLADOLID,31/05/19,20.69277778,-88.21583333,YC08,32.9,28.3,34.11804,26.30139,1.21804,-1.99861,29.74066,NA,NA,NA,NA,NA,0
VALLADOLID,31/07/19,20.69277778,-88.21583333,YC08,37.6,23.8,35.34229,24.34879,-2.25771,0.54879,29.10739,28.8,79,NA,2.8,234,1
VALLADOLID,31/07/19,20.69277778,-88.21583333,YC08,37.6,23.8,35.34229,24.34879,-2.25771,0.54879,29.10739,28.8,79,NA,2.8,234,1